^C:\USERS\MATTHEW.NEWMAN\DESKTOP\EXAMPLES\KITHARA_DATA_SHARING_MUTEX\SMP\PROJECT\KERNEL.CPP
C:\USERS\MATTHEW.NEWMAN\DESKTOP\EXAMPLES\KITHARA_DATA_SHARING_MUTEX\SMP\PROJECT\X64.DEBUG\VC120.PDB
C:\USERS\MATTHEW.NEWMAN\DESKTOP\EXAMPLES\KITHARA_DATA_SHARING_MUTEX\SMP\PROJECT\X64.DEBUG\KERNEL.OBJ
