^C:\PROJECTS\PASCAL3\KITHARAMAIN\X64.RELEASE\VISIONOPENCVWITHCAMERA.OBJ|C:\PROJECTS\PASCAL3\KITHARAMAIN\X64.RELEASE\_KITHARASMP.OBJ
C:\PROGRAM FILES (X86)\MICROSOFT VISUAL STUDIO 12.0\VC\BIN\X86_AMD64\LINK.EXE
C:\PROJECTS\DEV\KRTSDEMO_X64.LIB
C:\PROJECTS\PASCAL\TRUNK\OPENCV\BUILD\INSTALL\X64\VC12\STATICLIB\OPENCV_IMGCODECS300.LIB
C:\PROJECTS\PASCAL\TRUNK\OPENCV\BUILD\INSTALL\X64\VC12\STATICLIB\OPENCV_IMGPROC300.LIB
C:\PROJECTS\PASCAL\TRUNK\OPENCV\BUILD\INSTALL\X64\VC12\STATICLIB\OPENCV_CORE300.LIB
C:\PROJECTS\PASCAL\TRUNK\OPENCV\BUILD\INSTALL\X64\VC12\STATICLIB\OPENCV_HIGHGUI300.LIB
C:\PROJECTS\PASCAL\TRUNK\OPENCV\BUILD\INSTALL\X64\VC12\STATICLIB\OPENCV_VIDEO300.LIB
C:\PROJECTS\PASCAL\TRUNK\OPENCV\BUILD\INSTALL\X64\VC12\STATICLIB\OPENCV_HAL300.LIB
C:\PROJECTS\PASCAL\TRUNK\OPENCV\BUILD\INSTALL\X64\VC12\STATICLIB\IPPICVMT.LIB
C:\PROJECTS\PASCAL\TRUNK\OPENCV\BUILD\INSTALL\X64\VC12\STATICLIB\ILMIMF.LIB
C:\PROJECTS\PASCAL\TRUNK\OPENCV\BUILD\INSTALL\X64\VC12\STATICLIB\LIBTIFF.LIB
C:\PROJECTS\PASCAL\TRUNK\OPENCV\BUILD\INSTALL\X64\VC12\STATICLIB\LIBWEBP.LIB
C:\PROJECTS\PASCAL\TRUNK\OPENCV\BUILD\INSTALL\X64\VC12\STATICLIB\LIBJASPER.LIB
C:\PROJECTS\PASCAL\TRUNK\OPENCV\BUILD\INSTALL\X64\VC12\STATICLIB\LIBPNG.LIB
C:\PROJECTS\PASCAL\TRUNK\OPENCV\BUILD\INSTALL\X64\VC12\STATICLIB\LIBJPEG.LIB
C:\PROJECTS\PASCAL\TRUNK\OPENCV\BUILD\INSTALL\X64\VC12\STATICLIB\ZLIB.LIB
C:\PROGRAM FILES (X86)\MICROSOFT VISUAL STUDIO 12.0\VC\LIB\AMD64\OLDNAMES.LIB
C:\PROGRAM FILES (X86)\WINDOWS KITS\8.1\LIB\WINV6.3\UM\X64\USER32.LIB
C:\PROGRAM FILES (X86)\WINDOWS KITS\8.1\LIB\WINV6.3\UM\X64\GDI32.LIB
C:\PROGRAM FILES (X86)\WINDOWS KITS\8.1\LIB\WINV6.3\UM\X64\COMCTL32.LIB
C:\PROGRAM FILES (X86)\WINDOWS KITS\8.1\LIB\WINV6.3\UM\X64\COMDLG32.LIB
C:\PROGRAM FILES (X86)\WINDOWS KITS\8.1\LIB\WINV6.3\UM\X64\ADVAPI32.LIB
C:\PROJECTS\PASCAL3\KITHARAMAIN\X64.RELEASE\VISIONOPENCVWITHCAMERA.OBJ
C:\PROJECTS\PASCAL3\KITHARAMAIN\X64.RELEASE\_KITHARASMP.OBJ
C:\WINDOWS\GLOBALIZATION\SORTING\SORTDEFAULT.NLS
C:\PROGRAM FILES (X86)\MICROSOFT VISUAL STUDIO 12.0\VC\LIB\AMD64\LIBCPMT.LIB
C:\PROGRAM FILES (X86)\WINDOWS KITS\8.1\LIB\WINV6.3\UM\X64\UUID.LIB
C:\PROGRAM FILES (X86)\MICROSOFT VISUAL STUDIO 12.0\VC\LIB\AMD64\LIBCMT.LIB
C:\PROGRAM FILES (X86)\WINDOWS KITS\8.1\LIB\WINV6.3\UM\X64\KERNEL32.LIB
C:\PROGRAM FILES (X86)\WINDOWS KITS\8.1\BIN\X86\RC.EXE
C:\PROGRAM FILES (X86)\MICROSOFT VISUAL STUDIO 12.0\VC\BIN\CVTRES.EXE
C:\WINDOWS\SYSTEM32\TZRES.DLL
C:\WINDOWS\SYSTEM32\RSAENH.DLL
