^C:\PROJECTS\PASCAL3\BOOTSTRAPCODE\SRC\BOOTSTRAP\BOOTSTRAP.CPP
C:\PROJECTS\PASCAL3\UTILITIES\UTILITIES\STDAFX.H
C:\PROJECTS\PASCAL3\UTILITIES\UTILITIES\TARGETVER.H
C:\PROGRAM FILES (X86)\WINDOWS KITS\8.1\INCLUDE\SHARED\SDKDDKVER.H
C:\PROJECTS\PASCAL3\UTILITIES\UTILITIES\UDPSEND.H
C:\PROGRAM FILES (X86)\WINDOWS KITS\8.1\INCLUDE\UM\WINSOCK2.H
C:\PROGRAM FILES (X86)\WINDOWS KITS\8.1\INCLUDE\SHARED\WINAPIFAMILY.H
C:\PROGRAM FILES (X86)\WINDOWS KITS\8.1\INCLUDE\UM\WINDOWS.H
C:\PROGRAM FILES (X86)\MICROSOFT VISUAL STUDIO 12.0\VC\INCLUDE\EXCPT.H
C:\PROGRAM FILES (X86)\MICROSOFT VISUAL STUDIO 12.0\VC\INCLUDE\CRTDEFS.H
C:\PROGRAM FILES (X86)\MICROSOFT VISUAL STUDIO 12.0\VC\INCLUDE\SAL.H
C:\PROGRAM FILES (X86)\MICROSOFT VISUAL STUDIO 12.0\VC\INCLUDE\CONCURRENCYSAL.H
C:\PROGRAM FILES (X86)\MICROSOFT VISUAL STUDIO 12.0\VC\INCLUDE\VADEFS.H
C:\PROGRAM FILES (X86)\MICROSOFT VISUAL STUDIO 12.0\VC\INCLUDE\STDARG.H
C:\PROGRAM FILES (X86)\WINDOWS KITS\8.1\INCLUDE\SHARED\WINDEF.H
C:\PROGRAM FILES (X86)\WINDOWS KITS\8.1\INCLUDE\SHARED\MINWINDEF.H
C:\PROGRAM FILES (X86)\WINDOWS KITS\8.1\INCLUDE\SHARED\SPECSTRINGS.H
C:\PROGRAM FILES (X86)\WINDOWS KITS\8.1\INCLUDE\SHARED\SPECSTRINGS_STRICT.H
C:\PROGRAM FILES (X86)\WINDOWS KITS\8.1\INCLUDE\SHARED\SPECSTRINGS_UNDEF.H
C:\PROGRAM FILES (X86)\WINDOWS KITS\8.1\INCLUDE\SHARED\DRIVERSPECS.H
C:\PROGRAM FILES (X86)\WINDOWS KITS\8.1\INCLUDE\SHARED\SDV_DRIVERSPECS.H
C:\PROGRAM FILES (X86)\WINDOWS KITS\8.1\INCLUDE\UM\WINNT.H
C:\PROGRAM FILES (X86)\MICROSOFT VISUAL STUDIO 12.0\VC\INCLUDE\CTYPE.H
C:\PROGRAM FILES (X86)\WINDOWS KITS\8.1\INCLUDE\SHARED\KERNELSPECS.H
C:\PROGRAM FILES (X86)\WINDOWS KITS\8.1\INCLUDE\SHARED\BASETSD.H
C:\PROGRAM FILES (X86)\WINDOWS KITS\8.1\INCLUDE\SHARED\GUIDDEF.H
C:\PROGRAM FILES (X86)\MICROSOFT VISUAL STUDIO 12.0\VC\INCLUDE\STRING.H
C:\PROGRAM FILES (X86)\WINDOWS KITS\8.1\INCLUDE\SHARED\PSHPACK4.H
C:\PROGRAM FILES (X86)\WINDOWS KITS\8.1\INCLUDE\SHARED\POPPACK.H
C:\PROGRAM FILES (X86)\WINDOWS KITS\8.1\INCLUDE\SHARED\PSHPACK2.H
C:\PROGRAM FILES (X86)\WINDOWS KITS\8.1\INCLUDE\SHARED\PSHPACK8.H
C:\PROGRAM FILES (X86)\WINDOWS KITS\8.1\INCLUDE\SHARED\APISET.H
C:\PROGRAM FILES (X86)\WINDOWS KITS\8.1\INCLUDE\SHARED\KTMTYPES.H
C:\PROGRAM FILES (X86)\WINDOWS KITS\8.1\INCLUDE\UM\WINBASE.H
C:\PROGRAM FILES (X86)\WINDOWS KITS\8.1\INCLUDE\SHARED\APISETCCONV.H
C:\PROGRAM FILES (X86)\WINDOWS KITS\8.1\INCLUDE\UM\MINWINBASE.H
C:\PROGRAM FILES (X86)\WINDOWS KITS\8.1\INCLUDE\UM\PROCESSENV.H
C:\PROGRAM FILES (X86)\WINDOWS KITS\8.1\INCLUDE\UM\FILEAPI.H
C:\PROGRAM FILES (X86)\WINDOWS KITS\8.1\INCLUDE\UM\DEBUGAPI.H
C:\PROGRAM FILES (X86)\WINDOWS KITS\8.1\INCLUDE\UM\UTILAPISET.H
C:\PROGRAM FILES (X86)\WINDOWS KITS\8.1\INCLUDE\UM\HANDLEAPI.H
C:\PROGRAM FILES (X86)\WINDOWS KITS\8.1\INCLUDE\UM\ERRHANDLINGAPI.H
C:\PROGRAM FILES (X86)\WINDOWS KITS\8.1\INCLUDE\UM\FIBERSAPI.H
C:\PROGRAM FILES (X86)\WINDOWS KITS\8.1\INCLUDE\UM\NAMEDPIPEAPI.H
C:\PROGRAM FILES (X86)\WINDOWS KITS\8.1\INCLUDE\UM\PROFILEAPI.H
C:\PROGRAM FILES (X86)\WINDOWS KITS\8.1\INCLUDE\UM\HEAPAPI.H
C:\PROGRAM FILES (X86)\WINDOWS KITS\8.1\INCLUDE\UM\IOAPISET.H
C:\PROGRAM FILES (X86)\WINDOWS KITS\8.1\INCLUDE\UM\SYNCHAPI.H
C:\PROGRAM FILES (X86)\WINDOWS KITS\8.1\INCLUDE\UM\INTERLOCKEDAPI.H
C:\PROGRAM FILES (X86)\WINDOWS KITS\8.1\INCLUDE\UM\PROCESSTHREADSAPI.H
C:\PROGRAM FILES (X86)\WINDOWS KITS\8.1\INCLUDE\UM\SYSINFOAPI.H
C:\PROGRAM FILES (X86)\WINDOWS KITS\8.1\INCLUDE\UM\MEMORYAPI.H
C:\PROGRAM FILES (X86)\WINDOWS KITS\8.1\INCLUDE\UM\THREADPOOLLEGACYAPISET.H
C:\PROGRAM FILES (X86)\WINDOWS KITS\8.1\INCLUDE\UM\THREADPOOLAPISET.H
C:\PROGRAM FILES (X86)\WINDOWS KITS\8.1\INCLUDE\UM\BEMAPISET.H
C:\PROGRAM FILES (X86)\WINDOWS KITS\8.1\INCLUDE\UM\JOBAPI.H
C:\PROGRAM FILES (X86)\WINDOWS KITS\8.1\INCLUDE\UM\WOW64APISET.H
C:\PROGRAM FILES (X86)\WINDOWS KITS\8.1\INCLUDE\UM\LIBLOADERAPI.H
C:\PROGRAM FILES (X86)\WINDOWS KITS\8.1\INCLUDE\UM\SECURITYBASEAPI.H
C:\PROGRAM FILES (X86)\WINDOWS KITS\8.1\INCLUDE\UM\NAMESPACEAPI.H
C:\PROGRAM FILES (X86)\WINDOWS KITS\8.1\INCLUDE\UM\SYSTEMTOPOLOGYAPI.H
C:\PROGRAM FILES (X86)\WINDOWS KITS\8.1\INCLUDE\UM\PROCESSTOPOLOGYAPI.H
C:\PROGRAM FILES (X86)\WINDOWS KITS\8.1\INCLUDE\UM\SECURITYAPPCONTAINER.H
C:\PROGRAM FILES (X86)\WINDOWS KITS\8.1\INCLUDE\UM\REALTIMEAPISET.H
C:\PROGRAM FILES (X86)\WINDOWS KITS\8.1\INCLUDE\SHARED\WINERROR.H
C:\PROGRAM FILES (X86)\WINDOWS KITS\8.1\INCLUDE\UM\TIMEZONEAPI.H
C:\PROGRAM FILES (X86)\WINDOWS KITS\8.1\INCLUDE\UM\WINGDI.H
C:\PROGRAM FILES (X86)\WINDOWS KITS\8.1\INCLUDE\SHARED\PSHPACK1.H
C:\PROGRAM FILES (X86)\WINDOWS KITS\8.1\INCLUDE\UM\WINUSER.H
C:\PROGRAM FILES (X86)\WINDOWS KITS\8.1\INCLUDE\SHARED\TVOUT.H
C:\PROGRAM FILES (X86)\WINDOWS KITS\8.1\INCLUDE\UM\WINNLS.H
C:\PROGRAM FILES (X86)\WINDOWS KITS\8.1\INCLUDE\UM\DATETIMEAPI.H
C:\PROGRAM FILES (X86)\WINDOWS KITS\8.1\INCLUDE\UM\STRINGAPISET.H
C:\PROGRAM FILES (X86)\WINDOWS KITS\8.1\INCLUDE\UM\WINCON.H
C:\PROGRAM FILES (X86)\WINDOWS KITS\8.1\INCLUDE\UM\CONSOLEAPI.H
C:\PROGRAM FILES (X86)\WINDOWS KITS\8.1\INCLUDE\UM\WINVER.H
C:\PROGRAM FILES (X86)\WINDOWS KITS\8.1\INCLUDE\UM\VERRSRC.H
C:\PROGRAM FILES (X86)\WINDOWS KITS\8.1\INCLUDE\UM\WINREG.H
C:\PROGRAM FILES (X86)\WINDOWS KITS\8.1\INCLUDE\UM\REASON.H
C:\PROGRAM FILES (X86)\WINDOWS KITS\8.1\INCLUDE\UM\WINNETWK.H
C:\PROGRAM FILES (X86)\WINDOWS KITS\8.1\INCLUDE\SHARED\WNNC.H
C:\PROGRAM FILES (X86)\WINDOWS KITS\8.1\INCLUDE\SHARED\STRALIGN.H
C:\PROGRAM FILES (X86)\WINDOWS KITS\8.1\INCLUDE\UM\WINSVC.H
C:\PROGRAM FILES (X86)\WINDOWS KITS\8.1\INCLUDE\UM\MCX.H
C:\PROGRAM FILES (X86)\WINDOWS KITS\8.1\INCLUDE\UM\IMM.H
C:\PROGRAM FILES (X86)\WINDOWS KITS\8.1\INCLUDE\UM\IME_CMODES.H
C:\PROGRAM FILES (X86)\WINDOWS KITS\8.1\INCLUDE\SHARED\WS2DEF.H
C:\PROGRAM FILES (X86)\WINDOWS KITS\8.1\INCLUDE\SHARED\INADDR.H
C:\PROGRAM FILES (X86)\WINDOWS KITS\8.1\INCLUDE\SHARED\QOS.H
C:\PROGRAM FILES (X86)\MICROSOFT VISUAL STUDIO 12.0\VC\INCLUDE\STDLIB.H
C:\PROGRAM FILES (X86)\MICROSOFT VISUAL STUDIO 12.0\VC\INCLUDE\LIMITS.H
C:\PROGRAM FILES (X86)\MICROSOFT VISUAL STUDIO 12.0\VC\INCLUDE\SYS\TYPES.H
C:\PROGRAM FILES (X86)\MICROSOFT VISUAL STUDIO 12.0\VC\INCLUDE\CONIO.H
C:\PASCAL\OPENCV\INCLUDE\OPENCV2\CORE\CORE.HPP
C:\PASCAL\OPENCV\INCLUDE\OPENCV2\CORE.HPP
C:\PASCAL\OPENCV\INCLUDE\OPENCV2\CORE\CVDEF.H
C:\PASCAL\OPENCV\INCLUDE\OPENCV2\HAL\DEFS.H
C:\PROGRAM FILES (X86)\MICROSOFT VISUAL STUDIO 12.0\VC\INCLUDE\EMMINTRIN.H
C:\PROGRAM FILES (X86)\MICROSOFT VISUAL STUDIO 12.0\VC\INCLUDE\XMMINTRIN.H
C:\PROGRAM FILES (X86)\MICROSOFT VISUAL STUDIO 12.0\VC\INCLUDE\MMINTRIN.H
C:\PROGRAM FILES (X86)\MICROSOFT VISUAL STUDIO 12.0\VC\INCLUDE\MALLOC.H
C:\PROGRAM FILES (X86)\MICROSOFT VISUAL STUDIO 12.0\VC\INCLUDE\PMMINTRIN.H
C:\PROGRAM FILES (X86)\MICROSOFT VISUAL STUDIO 12.0\VC\INCLUDE\TMMINTRIN.H
C:\PROGRAM FILES (X86)\MICROSOFT VISUAL STUDIO 12.0\VC\INCLUDE\SMMINTRIN.H
C:\PROGRAM FILES (X86)\MICROSOFT VISUAL STUDIO 12.0\VC\INCLUDE\NMMINTRIN.H
C:\PROGRAM FILES (X86)\MICROSOFT VISUAL STUDIO 12.0\VC\INCLUDE\CMATH
C:\PROGRAM FILES (X86)\MICROSOFT VISUAL STUDIO 12.0\VC\INCLUDE\YVALS.H
C:\PROGRAM FILES (X86)\MICROSOFT VISUAL STUDIO 12.0\VC\INCLUDE\XKEYCHECK.H
C:\PROGRAM FILES (X86)\MICROSOFT VISUAL STUDIO 12.0\VC\INCLUDE\USE_ANSI.H
C:\PROGRAM FILES (X86)\MICROSOFT VISUAL STUDIO 12.0\VC\INCLUDE\MATH.H
C:\PROGRAM FILES (X86)\MICROSOFT VISUAL STUDIO 12.0\VC\INCLUDE\XTGMATH.H
C:\PROGRAM FILES (X86)\MICROSOFT VISUAL STUDIO 12.0\VC\INCLUDE\XTR1COMMON
C:\PROGRAM FILES (X86)\MICROSOFT VISUAL STUDIO 12.0\VC\INCLUDE\ALGORITHM
C:\PROGRAM FILES (X86)\MICROSOFT VISUAL STUDIO 12.0\VC\INCLUDE\XMEMORY
C:\PROGRAM FILES (X86)\MICROSOFT VISUAL STUDIO 12.0\VC\INCLUDE\XMEMORY0
C:\PROGRAM FILES (X86)\MICROSOFT VISUAL STUDIO 12.0\VC\INCLUDE\CSTDLIB
C:\PROGRAM FILES (X86)\MICROSOFT VISUAL STUDIO 12.0\VC\INCLUDE\LIMITS
C:\PROGRAM FILES (X86)\MICROSOFT VISUAL STUDIO 12.0\VC\INCLUDE\YMATH.H
C:\PROGRAM FILES (X86)\MICROSOFT VISUAL STUDIO 12.0\VC\INCLUDE\CFLOAT
C:\PROGRAM FILES (X86)\MICROSOFT VISUAL STUDIO 12.0\VC\INCLUDE\FLOAT.H
C:\PROGRAM FILES (X86)\MICROSOFT VISUAL STUDIO 12.0\VC\INCLUDE\CRTWRN.H
C:\PROGRAM FILES (X86)\MICROSOFT VISUAL STUDIO 12.0\VC\INCLUDE\CLIMITS
C:\PROGRAM FILES (X86)\MICROSOFT VISUAL STUDIO 12.0\VC\INCLUDE\CWCHAR
C:\PROGRAM FILES (X86)\MICROSOFT VISUAL STUDIO 12.0\VC\INCLUDE\WCHAR.H
C:\PROGRAM FILES (X86)\MICROSOFT VISUAL STUDIO 12.0\VC\INCLUDE\SWPRINTF.INL
C:\PROGRAM FILES (X86)\MICROSOFT VISUAL STUDIO 12.0\VC\INCLUDE\WTIME.INL
C:\PROGRAM FILES (X86)\MICROSOFT VISUAL STUDIO 12.0\VC\INCLUDE\XSTDDEF
C:\PROGRAM FILES (X86)\MICROSOFT VISUAL STUDIO 12.0\VC\INCLUDE\CSTDDEF
C:\PROGRAM FILES (X86)\MICROSOFT VISUAL STUDIO 12.0\VC\INCLUDE\STDDEF.H
C:\PROGRAM FILES (X86)\MICROSOFT VISUAL STUDIO 12.0\VC\INCLUDE\INITIALIZER_LIST
C:\PROGRAM FILES (X86)\MICROSOFT VISUAL STUDIO 12.0\VC\INCLUDE\NEW
C:\PROGRAM FILES (X86)\MICROSOFT VISUAL STUDIO 12.0\VC\INCLUDE\EXCEPTION
C:\PROGRAM FILES (X86)\MICROSOFT VISUAL STUDIO 12.0\VC\INCLUDE\EH.H
C:\PROGRAM FILES (X86)\MICROSOFT VISUAL STUDIO 12.0\VC\INCLUDE\XUTILITY
C:\PROGRAM FILES (X86)\MICROSOFT VISUAL STUDIO 12.0\VC\INCLUDE\UTILITY
C:\PROGRAM FILES (X86)\MICROSOFT VISUAL STUDIO 12.0\VC\INCLUDE\IOSFWD
C:\PROGRAM FILES (X86)\MICROSOFT VISUAL STUDIO 12.0\VC\INCLUDE\CSTDIO
C:\PROGRAM FILES (X86)\MICROSOFT VISUAL STUDIO 12.0\VC\INCLUDE\STDIO.H
C:\PROGRAM FILES (X86)\MICROSOFT VISUAL STUDIO 12.0\VC\INCLUDE\CSTRING
C:\PROGRAM FILES (X86)\MICROSOFT VISUAL STUDIO 12.0\VC\INCLUDE\CRTDBG.H
C:\PROGRAM FILES (X86)\MICROSOFT VISUAL STUDIO 12.0\VC\INCLUDE\TYPE_TRAITS
C:\PROGRAM FILES (X86)\MICROSOFT VISUAL STUDIO 12.0\VC\INCLUDE\XREFWRAP
C:\PROGRAM FILES (X86)\MICROSOFT VISUAL STUDIO 12.0\VC\INCLUDE\XATOMIC0.H
C:\PROGRAM FILES (X86)\MICROSOFT VISUAL STUDIO 12.0\VC\INCLUDE\INTRIN.H
C:\PROGRAM FILES (X86)\MICROSOFT VISUAL STUDIO 12.0\VC\INCLUDE\SETJMP.H
C:\PROGRAM FILES (X86)\MICROSOFT VISUAL STUDIO 12.0\VC\INCLUDE\IMMINTRIN.H
C:\PROGRAM FILES (X86)\MICROSOFT VISUAL STUDIO 12.0\VC\INCLUDE\WMMINTRIN.H
C:\PROGRAM FILES (X86)\MICROSOFT VISUAL STUDIO 12.0\VC\INCLUDE\AMMINTRIN.H
C:\PASCAL\OPENCV\INCLUDE\OPENCV2\CORE\VERSION.HPP
C:\PASCAL\OPENCV\INCLUDE\OPENCV2\CORE\BASE.HPP
C:\PASCAL\OPENCV\INCLUDE\OPENCV2\CORE\CVSTD.HPP
C:\PROGRAM FILES (X86)\MICROSOFT VISUAL STUDIO 12.0\VC\INCLUDE\CCTYPE
C:\PROGRAM FILES (X86)\MICROSOFT VISUAL STUDIO 12.0\VC\INCLUDE\STRING
C:\PROGRAM FILES (X86)\MICROSOFT VISUAL STUDIO 12.0\VC\INCLUDE\ITERATOR
C:\PROGRAM FILES (X86)\MICROSOFT VISUAL STUDIO 12.0\VC\INCLUDE\ISTREAM
C:\PROGRAM FILES (X86)\MICROSOFT VISUAL STUDIO 12.0\VC\INCLUDE\OSTREAM
C:\PROGRAM FILES (X86)\MICROSOFT VISUAL STUDIO 12.0\VC\INCLUDE\IOS
C:\PROGRAM FILES (X86)\MICROSOFT VISUAL STUDIO 12.0\VC\INCLUDE\XLOCNUM
C:\PROGRAM FILES (X86)\MICROSOFT VISUAL STUDIO 12.0\VC\INCLUDE\STREAMBUF
C:\PROGRAM FILES (X86)\MICROSOFT VISUAL STUDIO 12.0\VC\INCLUDE\XIOSBASE
C:\PROGRAM FILES (X86)\MICROSOFT VISUAL STUDIO 12.0\VC\INCLUDE\XLOCALE
C:\PROGRAM FILES (X86)\MICROSOFT VISUAL STUDIO 12.0\VC\INCLUDE\STDEXCEPT
C:\PROGRAM FILES (X86)\MICROSOFT VISUAL STUDIO 12.0\VC\INCLUDE\XSTRING
C:\PROGRAM FILES (X86)\MICROSOFT VISUAL STUDIO 12.0\VC\INCLUDE\TYPEINFO
C:\PROGRAM FILES (X86)\MICROSOFT VISUAL STUDIO 12.0\VC\INCLUDE\XLOCINFO
C:\PROGRAM FILES (X86)\MICROSOFT VISUAL STUDIO 12.0\VC\INCLUDE\XLOCINFO.H
C:\PROGRAM FILES (X86)\MICROSOFT VISUAL STUDIO 12.0\VC\INCLUDE\LOCALE.H
C:\PROGRAM FILES (X86)\MICROSOFT VISUAL STUDIO 12.0\VC\INCLUDE\XDEBUG
C:\PROGRAM FILES (X86)\MICROSOFT VISUAL STUDIO 12.0\VC\INCLUDE\XFACET
C:\PROGRAM FILES (X86)\MICROSOFT VISUAL STUDIO 12.0\VC\INCLUDE\SYSTEM_ERROR
C:\PROGRAM FILES (X86)\MICROSOFT VISUAL STUDIO 12.0\VC\INCLUDE\CERRNO
C:\PROGRAM FILES (X86)\MICROSOFT VISUAL STUDIO 12.0\VC\INCLUDE\ERRNO.H
C:\PROGRAM FILES (X86)\MICROSOFT VISUAL STUDIO 12.0\VC\INCLUDE\SHARE.H
C:\PASCAL\OPENCV\INCLUDE\OPENCV2\CORE\PTR.INL.HPP
C:\PASCAL\OPENCV\INCLUDE\OPENCV2\HAL.HPP
C:\PASCAL\OPENCV\INCLUDE\OPENCV2\CORE\SSE_UTILS.HPP
C:\PASCAL\OPENCV\INCLUDE\OPENCV2\CORE\TRAITS.HPP
C:\PASCAL\OPENCV\INCLUDE\OPENCV2\CORE\MATX.HPP
C:\PASCAL\OPENCV\INCLUDE\OPENCV2\CORE\TYPES.HPP
C:\PROGRAM FILES (X86)\MICROSOFT VISUAL STUDIO 12.0\VC\INCLUDE\VECTOR
C:\PASCAL\OPENCV\INCLUDE\OPENCV2\CORE\MAT.HPP
C:\PASCAL\OPENCV\INCLUDE\OPENCV2\CORE\BUFFERPOOL.HPP
C:\PASCAL\OPENCV\INCLUDE\OPENCV2\CORE\MAT.INL.HPP
C:\PASCAL\OPENCV\INCLUDE\OPENCV2\CORE\PERSISTENCE.HPP
C:\PASCAL\OPENCV\INCLUDE\OPENCV2\CORE\OPERATIONS.HPP
C:\PASCAL\OPENCV\INCLUDE\OPENCV2\CORE\CVSTD.INL.HPP
C:\PROGRAM FILES (X86)\MICROSOFT VISUAL STUDIO 12.0\VC\INCLUDE\COMPLEX
C:\PROGRAM FILES (X86)\MICROSOFT VISUAL STUDIO 12.0\VC\INCLUDE\CCOMPLEX
C:\PROGRAM FILES (X86)\MICROSOFT VISUAL STUDIO 12.0\VC\INCLUDE\SSTREAM
C:\PROGRAM FILES (X86)\MICROSOFT VISUAL STUDIO 12.0\VC\INCLUDE\XCOMPLEX
C:\PASCAL\OPENCV\INCLUDE\OPENCV2\CORE\UTILITY.HPP
C:\PASCAL\OPENCV\INCLUDE\OPENCV2\CORE\CORE_C.H
C:\PASCAL\OPENCV\INCLUDE\OPENCV2\CORE\TYPES_C.H
C:\PROGRAM FILES (X86)\MICROSOFT VISUAL STUDIO 12.0\VC\INCLUDE\ASSERT.H
C:\PASCAL\OPENCV\INCLUDE\OPENCV2\CORE\OPTIM.HPP
C:\PASCAL\OPENCV\INCLUDE\OPENCV2\HIGHGUI\HIGHGUI.HPP
C:\PASCAL\OPENCV\INCLUDE\OPENCV2\HIGHGUI.HPP
C:\PASCAL\OPENCV\INCLUDE\OPENCV2\IMGCODECS.HPP
C:\PASCAL\OPENCV\INCLUDE\OPENCV2\VIDEOIO.HPP
C:\PASCAL\OPENCV\INCLUDE\OPENCV2\HIGHGUI\HIGHGUI_C.H
C:\PASCAL\OPENCV\INCLUDE\OPENCV2\IMGPROC\IMGPROC_C.H
C:\PASCAL\OPENCV\INCLUDE\OPENCV2\IMGPROC\TYPES_C.H
C:\PASCAL\OPENCV\INCLUDE\OPENCV2\IMGCODECS\IMGCODECS_C.H
C:\PASCAL\OPENCV\INCLUDE\OPENCV2\VIDEOIO\VIDEOIO_C.H
C:\PASCAL\OPENCV\INCLUDE\OPENCV2\VIDEO\VIDEO.HPP
C:\PASCAL\OPENCV\INCLUDE\OPENCV2\VIDEO.HPP
C:\PASCAL\OPENCV\INCLUDE\OPENCV2\VIDEO\TRACKING.HPP
C:\PASCAL\OPENCV\INCLUDE\OPENCV2\IMGPROC.HPP
C:\PASCAL\OPENCV\INCLUDE\OPENCV2\VIDEO\BACKGROUND_SEGM.HPP
C:\PASCAL\OPENCV\INCLUDE\OPENCV2\VIDEO\TRACKING_C.H
C:\PASCAL\OPENCV\INCLUDE\OPENCV2\OPENCV.HPP
C:\PASCAL\OPENCV\INCLUDE\OPENCV2\PHOTO.HPP
C:\PASCAL\OPENCV\INCLUDE\OPENCV2\PHOTO\PHOTO_C.H
C:\PROGRA~1\BASLER\PYLON 5\DEVELOPMENT\INCLUDE\PYLON\PYLONINCLUDES.H
C:\PROGRA~1\BASLER\PYLON 5\DEVELOPMENT\INCLUDE\PYLON\PLATFORM.H
C:\PROGRA~1\BASLER\PYLON 5\DEVELOPMENT\INCLUDE\PYLON\PYLONLINKAGE.H
C:\PROGRA~1\BASLER\PYLON 5\DEVELOPMENT\INCLUDE\GENICAMVERSION.H
C:\PROGRA~1\BASLER\PYLON 5\DEVELOPMENT\INCLUDE\_GENICAMVERSION.H
C:\PROGRA~1\BASLER\PYLON 5\DEVELOPMENT\INCLUDE\BASE\GCLINKAGE.H
C:\PROGRA~1\BASLER\PYLON 5\DEVELOPMENT\INCLUDE\BASE\GCTYPES.H
C:\PROGRA~1\BASLER\PYLON 5\DEVELOPMENT\INCLUDE\BASE\GCNAMESPACE.H
C:\PROGRAM FILES (X86)\MICROSOFT VISUAL STUDIO 12.0\VC\INCLUDE\STDINT.H
C:\PROGRA~1\BASLER\PYLON 5\DEVELOPMENT\INCLUDE\BASE\GCSTRING.H
C:\PROGRAM FILES (X86)\MICROSOFT VISUAL STUDIO 12.0\VC\INCLUDE\IOSTREAM
C:\PROGRA~1\BASLER\PYLON 5\DEVELOPMENT\INCLUDE\BASE\GCSTRINGVECTOR.H
C:\PROGRA~1\BASLER\PYLON 5\DEVELOPMENT\INCLUDE\GENAPI\GENAPI.H
C:\PROGRA~1\BASLER\PYLON 5\DEVELOPMENT\INCLUDE\BASE\GCBASE.H
C:\PROGRA~1\BASLER\PYLON 5\DEVELOPMENT\INCLUDE\BASE\GCARRAY.H
C:\PROGRA~1\BASLER\PYLON 5\DEVELOPMENT\INCLUDE\BASE\GCEXCEPTION.H
C:\PROGRAM FILES (X86)\MICROSOFT VISUAL STUDIO 12.0\VC\INCLUDE\CASSERT
C:\PROGRAM FILES (X86)\MICROSOFT VISUAL STUDIO 12.0\VC\INCLUDE\CSTDARG
C:\PROGRA~1\BASLER\PYLON 5\DEVELOPMENT\INCLUDE\BASE\GCUTILITIES.H
C:\PROGRA~1\BASLER\PYLON 5\DEVELOPMENT\INCLUDE\GENAPI\GENAPIDLL.H
C:\PROGRA~1\BASLER\PYLON 5\DEVELOPMENT\INCLUDE\GENAPI\GENAPINAMESPACE.H
C:\PROGRA~1\BASLER\PYLON 5\DEVELOPMENT\INCLUDE\GENAPI\POINTER.H
C:\PROGRA~1\BASLER\PYLON 5\DEVELOPMENT\INCLUDE\GENICAMFWD.H
C:\PROGRAM FILES (X86)\WINDOWS KITS\8.1\INCLUDE\UM\OBJBASE.H
C:\PROGRAM FILES (X86)\WINDOWS KITS\8.1\INCLUDE\SHARED\RPC.H
C:\PROGRAM FILES (X86)\WINDOWS KITS\8.1\INCLUDE\SHARED\RPCDCE.H
C:\PROGRAM FILES (X86)\WINDOWS KITS\8.1\INCLUDE\SHARED\RPCDCEP.H
C:\PROGRAM FILES (X86)\WINDOWS KITS\8.1\INCLUDE\UM\RPCNSI.H
C:\PROGRAM FILES (X86)\WINDOWS KITS\8.1\INCLUDE\SHARED\RPCNTERR.H
C:\PROGRAM FILES (X86)\WINDOWS KITS\8.1\INCLUDE\SHARED\RPCASYNC.H
C:\PROGRAM FILES (X86)\WINDOWS KITS\8.1\INCLUDE\SHARED\RPCNDR.H
C:\PROGRAM FILES (X86)\WINDOWS KITS\8.1\INCLUDE\UM\RPCNSIP.H
C:\PROGRAM FILES (X86)\WINDOWS KITS\8.1\INCLUDE\SHARED\RPCSAL.H
C:\PROGRAM FILES (X86)\WINDOWS KITS\8.1\INCLUDE\UM\COMBASEAPI.H
C:\PROGRAM FILES (X86)\WINDOWS KITS\8.1\INCLUDE\SHARED\WTYPESBASE.H
C:\PROGRAM FILES (X86)\WINDOWS KITS\8.1\INCLUDE\UM\UNKNWNBASE.H
C:\PROGRAM FILES (X86)\WINDOWS KITS\8.1\INCLUDE\UM\OLE2.H
C:\PROGRAM FILES (X86)\WINDOWS KITS\8.1\INCLUDE\UM\OLEAUTO.H
C:\PROGRAM FILES (X86)\WINDOWS KITS\8.1\INCLUDE\UM\OAIDL.H
C:\PROGRAM FILES (X86)\WINDOWS KITS\8.1\INCLUDE\UM\OBJIDL.H
C:\PROGRAM FILES (X86)\WINDOWS KITS\8.1\INCLUDE\UM\UNKNWN.H
C:\PROGRAM FILES (X86)\WINDOWS KITS\8.1\INCLUDE\SHARED\WTYPES.H
C:\PROGRAM FILES (X86)\WINDOWS KITS\8.1\INCLUDE\UM\OLEIDL.H
C:\PROGRAM FILES (X86)\WINDOWS KITS\8.1\INCLUDE\UM\OBJIDLBASE.H
C:\PROGRAM FILES (X86)\WINDOWS KITS\8.1\INCLUDE\UM\CGUID.H
C:\PROGRAM FILES (X86)\WINDOWS KITS\8.1\INCLUDE\UM\URLMON.H
C:\PROGRAM FILES (X86)\WINDOWS KITS\8.1\INCLUDE\UM\SERVPROV.H
C:\PROGRAM FILES (X86)\WINDOWS KITS\8.1\INCLUDE\UM\MSXML.H
C:\PROGRAM FILES (X86)\WINDOWS KITS\8.1\INCLUDE\UM\PROPIDL.H
C:\PROGRA~1\BASLER\PYLON 5\DEVELOPMENT\INCLUDE\GENAPI\IENUMERATION.H
C:\PROGRA~1\BASLER\PYLON 5\DEVELOPMENT\INCLUDE\GENAPI\IENUMENTRY.H
C:\PROGRA~1\BASLER\PYLON 5\DEVELOPMENT\INCLUDE\GENAPI\IVALUE.H
C:\PROGRA~1\BASLER\PYLON 5\DEVELOPMENT\INCLUDE\GENAPI\TYPES.H
C:\PROGRA~1\BASLER\PYLON 5\DEVELOPMENT\INCLUDE\GENAPI\AUTOVECTOR.H
C:\PROGRA~1\BASLER\PYLON 5\DEVELOPMENT\INCLUDE\GENAPI\IBASE.H
C:\PROGRA~1\BASLER\PYLON 5\DEVELOPMENT\INCLUDE\GENAPI\REFERENCE.H
C:\PROGRA~1\BASLER\PYLON 5\DEVELOPMENT\INCLUDE\GENAPI\INODE.H
C:\PROGRA~1\BASLER\PYLON 5\DEVELOPMENT\INCLUDE\GENAPI\CONTAINER.H
C:\PROGRA~1\BASLER\PYLON 5\DEVELOPMENT\INCLUDE\GENAPI\IFLOAT.H
C:\PROGRA~1\BASLER\PYLON 5\DEVELOPMENT\INCLUDE\GENAPI\IINTEGER.H
C:\PROGRA~1\BASLER\PYLON 5\DEVELOPMENT\INCLUDE\GENAPI\ICATEGORY.H
C:\PROGRA~1\BASLER\PYLON 5\DEVELOPMENT\INCLUDE\GENAPI\IREGISTER.H
C:\PROGRA~1\BASLER\PYLON 5\DEVELOPMENT\INCLUDE\GENAPI\IBOOLEAN.H
C:\PROGRA~1\BASLER\PYLON 5\DEVELOPMENT\INCLUDE\GENAPI\IPORT.H
C:\PROGRA~1\BASLER\PYLON 5\DEVELOPMENT\INCLUDE\GENAPI\IPORTRECORDER.H
C:\PROGRA~1\BASLER\PYLON 5\DEVELOPMENT\INCLUDE\GENAPI\IPORTCONSTRUCT.H
C:\PROGRA~1\BASLER\PYLON 5\DEVELOPMENT\INCLUDE\GENAPI\ICHUNKPORT.H
C:\PROGRA~1\BASLER\PYLON 5\DEVELOPMENT\INCLUDE\GENAPI\ISTRING.H
C:\PROGRA~1\BASLER\PYLON 5\DEVELOPMENT\INCLUDE\GENAPI\INODEMAP.H
C:\PROGRA~1\BASLER\PYLON 5\DEVELOPMENT\INCLUDE\GENAPI\SYNCH.H
C:\PROGRA~1\BASLER\PYLON 5\DEVELOPMENT\INCLUDE\GENAPI\IDESTROY.H
C:\PROGRA~1\BASLER\PYLON 5\DEVELOPMENT\INCLUDE\GENAPI\IDEVICEINFO.H
C:\PROGRA~1\BASLER\PYLON 5\DEVELOPMENT\INCLUDE\GENAPI\ISELECTOR.H
C:\PROGRA~1\BASLER\PYLON 5\DEVELOPMENT\INCLUDE\GENAPI\ICOMMAND.H
C:\PROGRA~1\BASLER\PYLON 5\DEVELOPMENT\INCLUDE\GENAPI\IUSERDATA.H
C:\PROGRA~1\BASLER\PYLON 5\DEVELOPMENT\INCLUDE\GENAPI\NODEMAPREF.H
C:\PROGRA~1\BASLER\PYLON 5\DEVELOPMENT\INCLUDE\GENAPI\NODEMAPFACTORY.H
C:\PROGRA~1\BASLER\PYLON 5\DEVELOPMENT\INCLUDE\GENAPI\GENAPIVERSION.H
C:\PROGRAM FILES (X86)\MICROSOFT VISUAL STUDIO 12.0\VC\INCLUDE\MEMORY
C:\PROGRA~1\BASLER\PYLON 5\DEVELOPMENT\INCLUDE\GENAPI\NODECALLBACK.H
C:\PROGRA~1\BASLER\PYLON 5\DEVELOPMENT\INCLUDE\GENAPI\PERSISTENCE.H
C:\PROGRAM FILES (X86)\MICROSOFT VISUAL STUDIO 12.0\VC\INCLUDE\LIST
C:\PROGRA~1\BASLER\PYLON 5\DEVELOPMENT\INCLUDE\GENAPI\STRUCTPORT.H
C:\PROGRA~1\BASLER\PYLON 5\DEVELOPMENT\INCLUDE\GENAPI\PORTIMPL.H
C:\PROGRA~1\BASLER\PYLON 5\DEVELOPMENT\INCLUDE\GENAPI\SELECTORSET.H
C:\PROGRA~1\BASLER\PYLON 5\DEVELOPMENT\INCLUDE\GENAPI\ISELECTORDIGIT.H
C:\PROGRA~1\BASLER\PYLON 5\DEVELOPMENT\INCLUDE\GENAPI\GENAPILINKAGE.H
C:\PROGRA~1\BASLER\PYLON 5\DEVELOPMENT\INCLUDE\PYLON\STDINCLUDE.H
C:\PROGRA~1\BASLER\PYLON 5\DEVELOPMENT\INCLUDE\PYLON\TYPEMAPPINGS.H
C:\PROGRA~1\BASLER\PYLON 5\DEVELOPMENT\INCLUDE\PYLON\PYLONBASE.H
C:\PROGRA~1\BASLER\PYLON 5\DEVELOPMENT\INCLUDE\PYLON\PYLONVERSIONINFO.H
C:\PROGRA~1\BASLER\PYLON 5\DEVELOPMENT\INCLUDE\PYLON\INFO.H
C:\PROGRA~1\BASLER\PYLON 5\DEVELOPMENT\INCLUDE\PYLON\TLINFO.H
C:\PROGRA~1\BASLER\PYLON 5\DEVELOPMENT\INCLUDE\PYLON\DEVICECLASS.H
C:\PROGRA~1\BASLER\PYLON 5\DEVELOPMENT\INCLUDE\PYLON\DEVICEINFO.H
C:\PROGRA~1\BASLER\PYLON 5\DEVELOPMENT\INCLUDE\PYLON\CONTAINER.H
C:\PROGRA~1\BASLER\PYLON 5\DEVELOPMENT\INCLUDE\PYLON\INTERFACEINFO.H
C:\PROGRA~1\BASLER\PYLON 5\DEVELOPMENT\INCLUDE\PYLON\DEVICEFACTORY.H
C:\PROGRA~1\BASLER\PYLON 5\DEVELOPMENT\INCLUDE\PYLON\DEVICEACCESSMODE.H
C:\PROGRAM FILES (X86)\MICROSOFT VISUAL STUDIO 12.0\VC\INCLUDE\BITSET
C:\PROGRA~1\BASLER\PYLON 5\DEVELOPMENT\INCLUDE\PYLON\TRANSPORTLAYER.H
C:\PROGRA~1\BASLER\PYLON 5\DEVELOPMENT\INCLUDE\PYLON\TLFACTORY.H
C:\PROGRA~1\BASLER\PYLON 5\DEVELOPMENT\INCLUDE\PYLON\EVENTADAPTER.H
C:\PROGRA~1\BASLER\PYLON 5\DEVELOPMENT\INCLUDE\PYLON\CALLBACK.H
C:\PROGRA~1\BASLER\PYLON 5\DEVELOPMENT\INCLUDE\PYLON\DEVICE.H
C:\PROGRA~1\BASLER\PYLON 5\DEVELOPMENT\INCLUDE\PYLON\WAITOBJECT.H
C:\PROGRA~1\BASLER\PYLON 5\DEVELOPMENT\INCLUDE\PYLON\WAITOBJECTS.H
C:\PROGRA~1\BASLER\PYLON 5\DEVELOPMENT\INCLUDE\PYLON\STREAMGRABBER.H
C:\PROGRA~1\BASLER\PYLON 5\DEVELOPMENT\INCLUDE\PYLON\PIXELTYPE.H
C:\PROGRA~1\BASLER\PYLON 5\DEVELOPMENT\INCLUDE\PYLON\PIXEL.H
C:\PROGRA~1\BASLER\PYLON 5\DEVELOPMENT\INCLUDE\PYLON\PIXELTYPEMAPPER.H
C:\PROGRA~1\BASLER\PYLON 5\DEVELOPMENT\INCLUDE\GENAPI\IENUMERATIONT.H
C:\PROGRA~1\BASLER\PYLON 5\DEVELOPMENT\INCLUDE\GENAPI\COMPATIBILITY.H
C:\PROGRA~1\BASLER\PYLON 5\DEVELOPMENT\INCLUDE\PYLON\RESULT.H
C:\PROGRA~1\BASLER\PYLON 5\DEVELOPMENT\INCLUDE\PYLON\PAYLOADTYPE.H
C:\PROGRA~1\BASLER\PYLON 5\DEVELOPMENT\INCLUDE\PYLON\RESULTIMAGE.H
C:\PROGRA~1\BASLER\PYLON 5\DEVELOPMENT\INCLUDE\PYLON\IMAGE.H
C:\PROGRA~1\BASLER\PYLON 5\DEVELOPMENT\INCLUDE\PYLON\CHUNKPARSER.H
C:\PROGRA~1\BASLER\PYLON 5\DEVELOPMENT\INCLUDE\PYLON\EVENTGRABBER.H
C:\PROGRA~1\BASLER\PYLON 5\DEVELOPMENT\INCLUDE\PYLON\EVENTGRABBERPROXY.H
C:\PROGRAM FILES\BASLER\PYLON 5\DEVELOPMENT\INCLUDE\PYLON\NODEMAPPROXY.H
C:\PROGRA~1\BASLER\PYLON 5\DEVELOPMENT\INCLUDE\PYLON\ACQUIRESINGLEFRAMECONFIGURATION.H
C:\PROGRA~1\BASLER\PYLON 5\DEVELOPMENT\INCLUDE\PYLON\INSTANTCAMERA.H
C:\PROGRA~1\BASLER\PYLON 5\DEVELOPMENT\INCLUDE\PYLON\IMAGEEVENTHANDLER.H
C:\PROGRA~1\BASLER\PYLON 5\DEVELOPMENT\INCLUDE\PYLON\GRABRESULTPTR.H
C:\PROGRA~1\BASLER\PYLON 5\DEVELOPMENT\INCLUDE\PYLON\GRABRESULTDATA.H
C:\PROGRA~1\BASLER\PYLON 5\DEVELOPMENT\INCLUDE\PYLON\CONFIGURATIONEVENTHANDLER.H
C:\PROGRA~1\BASLER\PYLON 5\DEVELOPMENT\INCLUDE\PYLON\CAMERAEVENTHANDLER.H
C:\PROGRA~1\BASLER\PYLON 5\DEVELOPMENT\INCLUDE\PYLON\BUFFERFACTORY.H
C:\PROGRA~1\BASLER\PYLON 5\DEVELOPMENT\INCLUDE\PYLON\SFNCVERSION.H
C:\PROGRA~1\BASLER\PYLON 5\DEVELOPMENT\INCLUDE\PYLON\_INSTANTCAMERAPARAMS.H
C:\PROGRA~1\BASLER\PYLON 5\DEVELOPMENT\INCLUDE\GENAPI\DLLLOAD.H
C:\PROGRA~1\BASLER\PYLON 5\DEVELOPMENT\INCLUDE\PYLON\INSTANTCAMERAARRAY.H
C:\PROGRA~1\BASLER\PYLON 5\DEVELOPMENT\INCLUDE\PYLON\ACQUIRECONTINUOUSCONFIGURATION.H
C:\PROGRA~1\BASLER\PYLON 5\DEVELOPMENT\INCLUDE\PYLON\SOFTWARETRIGGERCONFIGURATION.H
C:\PROGRA~1\BASLER\PYLON 5\DEVELOPMENT\INCLUDE\PYLON\PYLONUTILITYINCLUDES.H
C:\PROGRA~1\BASLER\PYLON 5\DEVELOPMENT\INCLUDE\PYLON\PYLONUTILITY.H
C:\PROGRA~1\BASLER\PYLON 5\DEVELOPMENT\INCLUDE\PYLON\IMAGEFORMAT.H
C:\PROGRA~1\BASLER\PYLON 5\DEVELOPMENT\INCLUDE\PYLON\PYLONIMAGE.H
C:\PROGRA~1\BASLER\PYLON 5\DEVELOPMENT\INCLUDE\PYLON\PYLONIMAGEBASE.H
C:\PROGRA~1\BASLER\PYLON 5\DEVELOPMENT\INCLUDE\PYLON\REUSABLEIMAGE.H
C:\PROGRA~1\BASLER\PYLON 5\DEVELOPMENT\INCLUDE\PYLON\IMAGEPERSISTENCE.H
C:\PROGRA~1\BASLER\PYLON 5\DEVELOPMENT\INCLUDE\PYLON\PIXELDATA.H
C:\PROGRA~1\BASLER\PYLON 5\DEVELOPMENT\INCLUDE\PYLON\IMAGEFORMATCONVERTER.H
C:\PROGRA~1\BASLER\PYLON 5\DEVELOPMENT\INCLUDE\PYLON\_IMAGEFORMATCONVERTERPARAMS.H
C:\PROGRA~1\BASLER\PYLON 5\DEVELOPMENT\INCLUDE\PYLON\FEATUREPERSISTENCE.H
C:\PROGRA~1\BASLER\PYLON 5\DEVELOPMENT\INCLUDE\PYLON\PYLONBITMAPIMAGE.H
C:\PROGRA~1\BASLER\PYLON 5\DEVELOPMENT\INCLUDE\PYLON\AVIWRITER.H
C:\PROGRA~1\BASLER\PYLON 5\DEVELOPMENT\INCLUDE\PYLON\PIXELFORMATCONVERTER.H
C:\PROGRA~1\BASLER\PYLON 5\DEVELOPMENT\INCLUDE\PYLON\PIXELFORMATCONVERTERBAYER.H
C:\PROGRA~1\BASLER\PYLON 5\DEVELOPMENT\INCLUDE\PYLON\PIXELFORMATCONVERTERBAYER16.H
C:\PROGRA~1\BASLER\PYLON 5\DEVELOPMENT\INCLUDE\PYLON\PIXELFORMATCONVERTERMONOXX.H
C:\PROGRA~1\BASLER\PYLON 5\DEVELOPMENT\INCLUDE\PYLON\PIXELFORMATCONVERTERGAMMA.H
C:\PROGRA~1\BASLER\PYLON 5\DEVELOPMENT\INCLUDE\PYLON\PIXELFORMATCONVERTERMONOPACKED.H
C:\PROGRA~1\BASLER\PYLON 5\DEVELOPMENT\INCLUDE\PYLON\PIXELFORMATCONVERTERGAMMAPACKED.H
C:\PROGRA~1\BASLER\PYLON 5\DEVELOPMENT\INCLUDE\PYLON\PIXELFORMATCONVERTERRGB.H
C:\PROGRA~1\BASLER\PYLON 5\DEVELOPMENT\INCLUDE\PYLON\PIXELFORMATCONVERTERTRUNCATE.H
C:\PROGRA~1\BASLER\PYLON 5\DEVELOPMENT\INCLUDE\PYLON\PIXELFORMATCONVERTERTRUNCATEPACKED.H
C:\PROGRA~1\BASLER\PYLON 5\DEVELOPMENT\INCLUDE\PYLON\PIXELFORMATCONVERTERYUV422.H
C:\PROGRA~1\BASLER\PYLON 5\DEVELOPMENT\INCLUDE\PYLON\PYLONGUI.H
C:\PROJECTS\PASCAL3\BOOTSTRAPCODE\SRC\PARAMETERS\BOOTSTRAPSYSPARAMS.H
C:\PROGRAM FILES (X86)\MICROSOFT VISUAL STUDIO 12.0\VC\INCLUDE\IO.H
C:\PROJECTS\PASCAL3\UTILITIES\UTILITIES\CAMPARAMS.H
C:\PROJECTS\PASCAL3\BOOTSTRAPCODE\SRC\PARAMETERS\DEBUGFLAGS.H
C:\PROJECTS\PASCAL3\BOOTSTRAPCODE\SRC\TRACKING\TRACKING2D.H
C:\PROGRAM FILES (X86)\MICROSOFT VISUAL STUDIO 12.0\VC\INCLUDE\DEQUE
C:\PROJECTS\PASCAL3\UTILITIES\UTILITIES\BASLERCAMERA.H
C:\PROGRAM FILES (X86)\MICROSOFT VISUAL STUDIO 12.0\VC\INCLUDE\IOMANIP
C:\PROGRAM FILES (X86)\MICROSOFT VISUAL STUDIO 12.0\VC\INCLUDE\XLOCMON
C:\PROGRAM FILES (X86)\MICROSOFT VISUAL STUDIO 12.0\VC\INCLUDE\XLOCTIME
C:\PROGRAM FILES (X86)\MICROSOFT VISUAL STUDIO 12.0\VC\INCLUDE\CTIME
C:\PROGRAM FILES (X86)\MICROSOFT VISUAL STUDIO 12.0\VC\INCLUDE\TIME.H
C:\PROGRAM FILES (X86)\MICROSOFT VISUAL STUDIO 12.0\VC\INCLUDE\TIME.INL
C:\PROGRA~1\BASLER\PYLON 5\DEVELOPMENT\INCLUDE\PYLON\USB\BASLERUSBINSTANTCAMERA.H
C:\PROGRA~1\BASLER\PYLON 5\DEVELOPMENT\INCLUDE\PYLON\USB\_BASLERUSBCAMERAPARAMS.H
C:\PROGRA~1\BASLER\PYLON 5\DEVELOPMENT\INCLUDE\PYLON\USB\BASLERUSBDEVICEINFO.H
C:\PROGRA~1\BASLER\PYLON 5\DEVELOPMENT\INCLUDE\PYLON\USB\BASLERUSBCONFIGURATIONEVENTHANDLER.H
C:\PROGRA~1\BASLER\PYLON 5\DEVELOPMENT\INCLUDE\PYLON\USB\BASLERUSBIMAGEEVENTHANDLER.H
C:\PROGRA~1\BASLER\PYLON 5\DEVELOPMENT\INCLUDE\PYLON\USB\BASLERUSBGRABRESULTPTR.H
C:\PROGRA~1\BASLER\PYLON 5\DEVELOPMENT\INCLUDE\PYLON\USB\BASLERUSBGRABRESULTDATA.H
C:\PROGRA~1\BASLER\PYLON 5\DEVELOPMENT\INCLUDE\PYLON\USB\_USBCHUNKDATA.H
C:\PROGRA~1\BASLER\PYLON 5\DEVELOPMENT\INCLUDE\PYLON\PRIVATE\DEVICESPECIFICGRABRESULTPTR.H
C:\PROGRA~1\BASLER\PYLON 5\DEVELOPMENT\INCLUDE\PYLON\USB\BASLERUSBCAMERAEVENTHANDLER.H
C:\PROGRA~1\BASLER\PYLON 5\DEVELOPMENT\INCLUDE\PYLON\PRIVATE\DEVICESPECIFICINSTANTCAMERA.H
C:\PROGRA~1\BASLER\PYLON 5\DEVELOPMENT\INCLUDE\PYLON\PRIVATE\DEVICESPECIFICCONFIGURATIONEVENTHANDLERTIE.H
C:\PROGRA~1\BASLER\PYLON 5\DEVELOPMENT\INCLUDE\PYLON\PRIVATE\DEVICESPECIFICIMAGEEVENTHANDLERTIE.H
C:\PROGRA~1\BASLER\PYLON 5\DEVELOPMENT\INCLUDE\PYLON\PRIVATE\DEVICESPECIFICCAMERAEVENTHANDLERTIE.H
C:\PROGRA~1\BASLER\PYLON 5\DEVELOPMENT\INCLUDE\PYLON\USB\_USBSTREAMPARAMS.H
C:\PROGRA~1\BASLER\PYLON 5\DEVELOPMENT\INCLUDE\PYLON\USB\_USBEVENTPARAMS.H
C:\PROGRA~1\BASLER\PYLON 5\DEVELOPMENT\INCLUDE\PYLON\USB\_USBTLPARAMS.H
C:\PROJECTS\PASCAL3\UTILITIES\UTILITIES\DISPLAYIM.H
C:\PROJECTS\PASCAL3\UTILITIES\UTILITIES\HISTOGRAM.H
C:\PROGRAM FILES (X86)\MICROSOFT VISUAL STUDIO 12.0\VC\INCLUDE\NUMERIC
C:\PROJECTS\PASCAL3\UTILITIES\UTILITIES\WRITEVECTOR.H
^C:\PROJECTS\PASCAL3\BOOTSTRAPCODE\SRC\IMAGEPROCESSING\DETECTDROP.CPP
C:\PROJECTS\PASCAL3\UTILITIES\UTILITIES\STDAFX.H
C:\PROJECTS\PASCAL3\UTILITIES\UTILITIES\TARGETVER.H
C:\PROGRAM FILES (X86)\WINDOWS KITS\8.1\INCLUDE\SHARED\SDKDDKVER.H
C:\PROGRAM FILES (X86)\MICROSOFT VISUAL STUDIO 12.0\VC\INCLUDE\IO.H
C:\PROGRAM FILES (X86)\MICROSOFT VISUAL STUDIO 12.0\VC\INCLUDE\CRTDEFS.H
C:\PROGRAM FILES (X86)\MICROSOFT VISUAL STUDIO 12.0\VC\INCLUDE\SAL.H
C:\PROGRAM FILES (X86)\MICROSOFT VISUAL STUDIO 12.0\VC\INCLUDE\CONCURRENCYSAL.H
C:\PROGRAM FILES (X86)\MICROSOFT VISUAL STUDIO 12.0\VC\INCLUDE\VADEFS.H
C:\PROGRAM FILES (X86)\MICROSOFT VISUAL STUDIO 12.0\VC\INCLUDE\ALGORITHM
C:\PROGRAM FILES (X86)\MICROSOFT VISUAL STUDIO 12.0\VC\INCLUDE\XMEMORY
C:\PROGRAM FILES (X86)\MICROSOFT VISUAL STUDIO 12.0\VC\INCLUDE\XMEMORY0
C:\PROGRAM FILES (X86)\MICROSOFT VISUAL STUDIO 12.0\VC\INCLUDE\CSTDLIB
C:\PROGRAM FILES (X86)\MICROSOFT VISUAL STUDIO 12.0\VC\INCLUDE\YVALS.H
C:\PROGRAM FILES (X86)\MICROSOFT VISUAL STUDIO 12.0\VC\INCLUDE\XKEYCHECK.H
C:\PROGRAM FILES (X86)\MICROSOFT VISUAL STUDIO 12.0\VC\INCLUDE\USE_ANSI.H
C:\PROGRAM FILES (X86)\MICROSOFT VISUAL STUDIO 12.0\VC\INCLUDE\STDLIB.H
C:\PROGRAM FILES (X86)\MICROSOFT VISUAL STUDIO 12.0\VC\INCLUDE\LIMITS.H
C:\PROGRAM FILES (X86)\MICROSOFT VISUAL STUDIO 12.0\VC\INCLUDE\LIMITS
C:\PROGRAM FILES (X86)\MICROSOFT VISUAL STUDIO 12.0\VC\INCLUDE\YMATH.H
C:\PROGRAM FILES (X86)\MICROSOFT VISUAL STUDIO 12.0\VC\INCLUDE\CFLOAT
C:\PROGRAM FILES (X86)\MICROSOFT VISUAL STUDIO 12.0\VC\INCLUDE\FLOAT.H
C:\PROGRAM FILES (X86)\MICROSOFT VISUAL STUDIO 12.0\VC\INCLUDE\CRTWRN.H
C:\PROGRAM FILES (X86)\MICROSOFT VISUAL STUDIO 12.0\VC\INCLUDE\CLIMITS
C:\PROGRAM FILES (X86)\MICROSOFT VISUAL STUDIO 12.0\VC\INCLUDE\CMATH
C:\PROGRAM FILES (X86)\MICROSOFT VISUAL STUDIO 12.0\VC\INCLUDE\MATH.H
C:\PROGRAM FILES (X86)\MICROSOFT VISUAL STUDIO 12.0\VC\INCLUDE\XTGMATH.H
C:\PROGRAM FILES (X86)\MICROSOFT VISUAL STUDIO 12.0\VC\INCLUDE\XTR1COMMON
C:\PROGRAM FILES (X86)\MICROSOFT VISUAL STUDIO 12.0\VC\INCLUDE\CWCHAR
C:\PROGRAM FILES (X86)\MICROSOFT VISUAL STUDIO 12.0\VC\INCLUDE\WCHAR.H
C:\PROGRAM FILES (X86)\MICROSOFT VISUAL STUDIO 12.0\VC\INCLUDE\SWPRINTF.INL
C:\PROGRAM FILES (X86)\MICROSOFT VISUAL STUDIO 12.0\VC\INCLUDE\WTIME.INL
C:\PROGRAM FILES (X86)\MICROSOFT VISUAL STUDIO 12.0\VC\INCLUDE\XSTDDEF
C:\PROGRAM FILES (X86)\MICROSOFT VISUAL STUDIO 12.0\VC\INCLUDE\CSTDDEF
C:\PROGRAM FILES (X86)\MICROSOFT VISUAL STUDIO 12.0\VC\INCLUDE\STDDEF.H
C:\PROGRAM FILES (X86)\MICROSOFT VISUAL STUDIO 12.0\VC\INCLUDE\INITIALIZER_LIST
C:\PROGRAM FILES (X86)\MICROSOFT VISUAL STUDIO 12.0\VC\INCLUDE\NEW
C:\PROGRAM FILES (X86)\MICROSOFT VISUAL STUDIO 12.0\VC\INCLUDE\EXCEPTION
C:\PROGRAM FILES (X86)\MICROSOFT VISUAL STUDIO 12.0\VC\INCLUDE\EH.H
C:\PROGRAM FILES (X86)\MICROSOFT VISUAL STUDIO 12.0\VC\INCLUDE\MALLOC.H
C:\PROGRAM FILES (X86)\MICROSOFT VISUAL STUDIO 12.0\VC\INCLUDE\STRING.H
C:\PROGRAM FILES (X86)\MICROSOFT VISUAL STUDIO 12.0\VC\INCLUDE\XUTILITY
C:\PROGRAM FILES (X86)\MICROSOFT VISUAL STUDIO 12.0\VC\INCLUDE\UTILITY
C:\PROGRAM FILES (X86)\MICROSOFT VISUAL STUDIO 12.0\VC\INCLUDE\IOSFWD
C:\PROGRAM FILES (X86)\MICROSOFT VISUAL STUDIO 12.0\VC\INCLUDE\CSTDIO
C:\PROGRAM FILES (X86)\MICROSOFT VISUAL STUDIO 12.0\VC\INCLUDE\STDIO.H
C:\PROGRAM FILES (X86)\MICROSOFT VISUAL STUDIO 12.0\VC\INCLUDE\CSTRING
C:\PROGRAM FILES (X86)\MICROSOFT VISUAL STUDIO 12.0\VC\INCLUDE\CRTDBG.H
C:\PROGRAM FILES (X86)\MICROSOFT VISUAL STUDIO 12.0\VC\INCLUDE\TYPE_TRAITS
C:\PROGRAM FILES (X86)\MICROSOFT VISUAL STUDIO 12.0\VC\INCLUDE\XREFWRAP
C:\PROGRAM FILES (X86)\MICROSOFT VISUAL STUDIO 12.0\VC\INCLUDE\XATOMIC0.H
C:\PROGRAM FILES (X86)\MICROSOFT VISUAL STUDIO 12.0\VC\INCLUDE\INTRIN.H
C:\PROGRAM FILES (X86)\MICROSOFT VISUAL STUDIO 12.0\VC\INCLUDE\SETJMP.H
C:\PROGRAM FILES (X86)\MICROSOFT VISUAL STUDIO 12.0\VC\INCLUDE\IMMINTRIN.H
C:\PROGRAM FILES (X86)\MICROSOFT VISUAL STUDIO 12.0\VC\INCLUDE\WMMINTRIN.H
C:\PROGRAM FILES (X86)\MICROSOFT VISUAL STUDIO 12.0\VC\INCLUDE\NMMINTRIN.H
C:\PROGRAM FILES (X86)\MICROSOFT VISUAL STUDIO 12.0\VC\INCLUDE\SMMINTRIN.H
C:\PROGRAM FILES (X86)\MICROSOFT VISUAL STUDIO 12.0\VC\INCLUDE\TMMINTRIN.H
C:\PROGRAM FILES (X86)\MICROSOFT VISUAL STUDIO 12.0\VC\INCLUDE\PMMINTRIN.H
C:\PROGRAM FILES (X86)\MICROSOFT VISUAL STUDIO 12.0\VC\INCLUDE\EMMINTRIN.H
C:\PROGRAM FILES (X86)\MICROSOFT VISUAL STUDIO 12.0\VC\INCLUDE\XMMINTRIN.H
C:\PROGRAM FILES (X86)\MICROSOFT VISUAL STUDIO 12.0\VC\INCLUDE\MMINTRIN.H
C:\PROGRAM FILES (X86)\MICROSOFT VISUAL STUDIO 12.0\VC\INCLUDE\AMMINTRIN.H
C:\PASCAL\OPENCV\INCLUDE\OPENCV2\CORE\CORE.HPP
C:\PASCAL\OPENCV\INCLUDE\OPENCV2\CORE.HPP
C:\PASCAL\OPENCV\INCLUDE\OPENCV2\CORE\CVDEF.H
C:\PASCAL\OPENCV\INCLUDE\OPENCV2\HAL\DEFS.H
C:\PASCAL\OPENCV\INCLUDE\OPENCV2\CORE\VERSION.HPP
C:\PASCAL\OPENCV\INCLUDE\OPENCV2\CORE\BASE.HPP
C:\PASCAL\OPENCV\INCLUDE\OPENCV2\CORE\CVSTD.HPP
C:\PROGRAM FILES (X86)\MICROSOFT VISUAL STUDIO 12.0\VC\INCLUDE\CCTYPE
C:\PROGRAM FILES (X86)\MICROSOFT VISUAL STUDIO 12.0\VC\INCLUDE\CTYPE.H
C:\PROGRAM FILES (X86)\MICROSOFT VISUAL STUDIO 12.0\VC\INCLUDE\STRING
C:\PROGRAM FILES (X86)\MICROSOFT VISUAL STUDIO 12.0\VC\INCLUDE\ITERATOR
C:\PROGRAM FILES (X86)\MICROSOFT VISUAL STUDIO 12.0\VC\INCLUDE\ISTREAM
C:\PROGRAM FILES (X86)\MICROSOFT VISUAL STUDIO 12.0\VC\INCLUDE\OSTREAM
C:\PROGRAM FILES (X86)\MICROSOFT VISUAL STUDIO 12.0\VC\INCLUDE\IOS
C:\PROGRAM FILES (X86)\MICROSOFT VISUAL STUDIO 12.0\VC\INCLUDE\XLOCNUM
C:\PROGRAM FILES (X86)\MICROSOFT VISUAL STUDIO 12.0\VC\INCLUDE\STREAMBUF
C:\PROGRAM FILES (X86)\MICROSOFT VISUAL STUDIO 12.0\VC\INCLUDE\XIOSBASE
C:\PROGRAM FILES (X86)\MICROSOFT VISUAL STUDIO 12.0\VC\INCLUDE\XLOCALE
C:\PROGRAM FILES (X86)\MICROSOFT VISUAL STUDIO 12.0\VC\INCLUDE\STDEXCEPT
C:\PROGRAM FILES (X86)\MICROSOFT VISUAL STUDIO 12.0\VC\INCLUDE\XSTRING
C:\PROGRAM FILES (X86)\MICROSOFT VISUAL STUDIO 12.0\VC\INCLUDE\TYPEINFO
C:\PROGRAM FILES (X86)\MICROSOFT VISUAL STUDIO 12.0\VC\INCLUDE\XLOCINFO
C:\PROGRAM FILES (X86)\MICROSOFT VISUAL STUDIO 12.0\VC\INCLUDE\XLOCINFO.H
C:\PROGRAM FILES (X86)\MICROSOFT VISUAL STUDIO 12.0\VC\INCLUDE\LOCALE.H
C:\PROGRAM FILES (X86)\MICROSOFT VISUAL STUDIO 12.0\VC\INCLUDE\XDEBUG
C:\PROGRAM FILES (X86)\MICROSOFT VISUAL STUDIO 12.0\VC\INCLUDE\XFACET
C:\PROGRAM FILES (X86)\MICROSOFT VISUAL STUDIO 12.0\VC\INCLUDE\SYSTEM_ERROR
C:\PROGRAM FILES (X86)\MICROSOFT VISUAL STUDIO 12.0\VC\INCLUDE\CERRNO
C:\PROGRAM FILES (X86)\MICROSOFT VISUAL STUDIO 12.0\VC\INCLUDE\ERRNO.H
C:\PROGRAM FILES (X86)\MICROSOFT VISUAL STUDIO 12.0\VC\INCLUDE\SHARE.H
C:\PASCAL\OPENCV\INCLUDE\OPENCV2\CORE\PTR.INL.HPP
C:\PASCAL\OPENCV\INCLUDE\OPENCV2\HAL.HPP
C:\PASCAL\OPENCV\INCLUDE\OPENCV2\CORE\SSE_UTILS.HPP
C:\PASCAL\OPENCV\INCLUDE\OPENCV2\CORE\TRAITS.HPP
C:\PASCAL\OPENCV\INCLUDE\OPENCV2\CORE\MATX.HPP
C:\PASCAL\OPENCV\INCLUDE\OPENCV2\CORE\TYPES.HPP
C:\PROGRAM FILES (X86)\MICROSOFT VISUAL STUDIO 12.0\VC\INCLUDE\VECTOR
C:\PASCAL\OPENCV\INCLUDE\OPENCV2\CORE\MAT.HPP
C:\PASCAL\OPENCV\INCLUDE\OPENCV2\CORE\BUFFERPOOL.HPP
C:\PASCAL\OPENCV\INCLUDE\OPENCV2\CORE\MAT.INL.HPP
C:\PASCAL\OPENCV\INCLUDE\OPENCV2\CORE\PERSISTENCE.HPP
C:\PASCAL\OPENCV\INCLUDE\OPENCV2\CORE\OPERATIONS.HPP
C:\PASCAL\OPENCV\INCLUDE\OPENCV2\CORE\CVSTD.INL.HPP
C:\PROGRAM FILES (X86)\MICROSOFT VISUAL STUDIO 12.0\VC\INCLUDE\COMPLEX
C:\PROGRAM FILES (X86)\MICROSOFT VISUAL STUDIO 12.0\VC\INCLUDE\CCOMPLEX
C:\PROGRAM FILES (X86)\MICROSOFT VISUAL STUDIO 12.0\VC\INCLUDE\SSTREAM
C:\PROGRAM FILES (X86)\MICROSOFT VISUAL STUDIO 12.0\VC\INCLUDE\XCOMPLEX
C:\PASCAL\OPENCV\INCLUDE\OPENCV2\CORE\UTILITY.HPP
C:\PASCAL\OPENCV\INCLUDE\OPENCV2\CORE\CORE_C.H
C:\PASCAL\OPENCV\INCLUDE\OPENCV2\CORE\TYPES_C.H
C:\PROGRAM FILES (X86)\MICROSOFT VISUAL STUDIO 12.0\VC\INCLUDE\ASSERT.H
C:\PASCAL\OPENCV\INCLUDE\OPENCV2\CORE\OPTIM.HPP
C:\PASCAL\OPENCV\INCLUDE\OPENCV2\HIGHGUI\HIGHGUI.HPP
C:\PASCAL\OPENCV\INCLUDE\OPENCV2\HIGHGUI.HPP
C:\PASCAL\OPENCV\INCLUDE\OPENCV2\IMGCODECS.HPP
C:\PASCAL\OPENCV\INCLUDE\OPENCV2\VIDEOIO.HPP
C:\PASCAL\OPENCV\INCLUDE\OPENCV2\HIGHGUI\HIGHGUI_C.H
C:\PASCAL\OPENCV\INCLUDE\OPENCV2\IMGPROC\IMGPROC_C.H
C:\PASCAL\OPENCV\INCLUDE\OPENCV2\IMGPROC\TYPES_C.H
C:\PASCAL\OPENCV\INCLUDE\OPENCV2\IMGCODECS\IMGCODECS_C.H
C:\PASCAL\OPENCV\INCLUDE\OPENCV2\VIDEOIO\VIDEOIO_C.H
C:\PASCAL\OPENCV\INCLUDE\OPENCV2\VIDEO\VIDEO.HPP
C:\PASCAL\OPENCV\INCLUDE\OPENCV2\VIDEO.HPP
C:\PASCAL\OPENCV\INCLUDE\OPENCV2\VIDEO\TRACKING.HPP
C:\PASCAL\OPENCV\INCLUDE\OPENCV2\IMGPROC.HPP
C:\PASCAL\OPENCV\INCLUDE\OPENCV2\VIDEO\BACKGROUND_SEGM.HPP
C:\PASCAL\OPENCV\INCLUDE\OPENCV2\VIDEO\TRACKING_C.H
C:\PASCAL\OPENCV\INCLUDE\OPENCV2\OPENCV.HPP
C:\PASCAL\OPENCV\INCLUDE\OPENCV2\PHOTO.HPP
C:\PASCAL\OPENCV\INCLUDE\OPENCV2\PHOTO\PHOTO_C.H
C:\PROGRAM FILES (X86)\MICROSOFT VISUAL STUDIO 12.0\VC\INCLUDE\IOSTREAM
^C:\PROJECTS\PASCAL3\BOOTSTRAPCODE\SRC\IMAGEPROCESSING\DROPDETECTION.CPP
C:\PROJECTS\PASCAL3\UTILITIES\UTILITIES\STDAFX.H
C:\PROJECTS\PASCAL3\UTILITIES\UTILITIES\TARGETVER.H
C:\PROGRAM FILES (X86)\WINDOWS KITS\8.1\INCLUDE\SHARED\SDKDDKVER.H
C:\PROJECTS\PASCAL3\BOOTSTRAPCODE\SRC\IMAGEPROCESSING\DROPDETECTION.H
C:\PASCAL\OPENCV\INCLUDE\OPENCV2\CORE\CORE.HPP
C:\PASCAL\OPENCV\INCLUDE\OPENCV2\CORE.HPP
C:\PASCAL\OPENCV\INCLUDE\OPENCV2\CORE\CVDEF.H
C:\PASCAL\OPENCV\INCLUDE\OPENCV2\HAL\DEFS.H
C:\PROGRAM FILES (X86)\MICROSOFT VISUAL STUDIO 12.0\VC\INCLUDE\LIMITS.H
C:\PROGRAM FILES (X86)\MICROSOFT VISUAL STUDIO 12.0\VC\INCLUDE\CRTDEFS.H
C:\PROGRAM FILES (X86)\MICROSOFT VISUAL STUDIO 12.0\VC\INCLUDE\SAL.H
C:\PROGRAM FILES (X86)\MICROSOFT VISUAL STUDIO 12.0\VC\INCLUDE\CONCURRENCYSAL.H
C:\PROGRAM FILES (X86)\MICROSOFT VISUAL STUDIO 12.0\VC\INCLUDE\VADEFS.H
C:\PROGRAM FILES (X86)\MICROSOFT VISUAL STUDIO 12.0\VC\INCLUDE\EMMINTRIN.H
C:\PROGRAM FILES (X86)\MICROSOFT VISUAL STUDIO 12.0\VC\INCLUDE\XMMINTRIN.H
C:\PROGRAM FILES (X86)\MICROSOFT VISUAL STUDIO 12.0\VC\INCLUDE\MMINTRIN.H
C:\PROGRAM FILES (X86)\MICROSOFT VISUAL STUDIO 12.0\VC\INCLUDE\MALLOC.H
C:\PROGRAM FILES (X86)\MICROSOFT VISUAL STUDIO 12.0\VC\INCLUDE\PMMINTRIN.H
C:\PROGRAM FILES (X86)\MICROSOFT VISUAL STUDIO 12.0\VC\INCLUDE\TMMINTRIN.H
C:\PROGRAM FILES (X86)\MICROSOFT VISUAL STUDIO 12.0\VC\INCLUDE\SMMINTRIN.H
C:\PROGRAM FILES (X86)\MICROSOFT VISUAL STUDIO 12.0\VC\INCLUDE\NMMINTRIN.H
C:\PROGRAM FILES (X86)\MICROSOFT VISUAL STUDIO 12.0\VC\INCLUDE\CMATH
C:\PROGRAM FILES (X86)\MICROSOFT VISUAL STUDIO 12.0\VC\INCLUDE\YVALS.H
C:\PROGRAM FILES (X86)\MICROSOFT VISUAL STUDIO 12.0\VC\INCLUDE\XKEYCHECK.H
C:\PROGRAM FILES (X86)\MICROSOFT VISUAL STUDIO 12.0\VC\INCLUDE\USE_ANSI.H
C:\PROGRAM FILES (X86)\MICROSOFT VISUAL STUDIO 12.0\VC\INCLUDE\MATH.H
C:\PROGRAM FILES (X86)\MICROSOFT VISUAL STUDIO 12.0\VC\INCLUDE\XTGMATH.H
C:\PROGRAM FILES (X86)\MICROSOFT VISUAL STUDIO 12.0\VC\INCLUDE\XTR1COMMON
C:\PROGRAM FILES (X86)\MICROSOFT VISUAL STUDIO 12.0\VC\INCLUDE\ALGORITHM
C:\PROGRAM FILES (X86)\MICROSOFT VISUAL STUDIO 12.0\VC\INCLUDE\XMEMORY
C:\PROGRAM FILES (X86)\MICROSOFT VISUAL STUDIO 12.0\VC\INCLUDE\XMEMORY0
C:\PROGRAM FILES (X86)\MICROSOFT VISUAL STUDIO 12.0\VC\INCLUDE\CSTDLIB
C:\PROGRAM FILES (X86)\MICROSOFT VISUAL STUDIO 12.0\VC\INCLUDE\STDLIB.H
C:\PROGRAM FILES (X86)\MICROSOFT VISUAL STUDIO 12.0\VC\INCLUDE\LIMITS
C:\PROGRAM FILES (X86)\MICROSOFT VISUAL STUDIO 12.0\VC\INCLUDE\YMATH.H
C:\PROGRAM FILES (X86)\MICROSOFT VISUAL STUDIO 12.0\VC\INCLUDE\CFLOAT
C:\PROGRAM FILES (X86)\MICROSOFT VISUAL STUDIO 12.0\VC\INCLUDE\FLOAT.H
C:\PROGRAM FILES (X86)\MICROSOFT VISUAL STUDIO 12.0\VC\INCLUDE\CRTWRN.H
C:\PROGRAM FILES (X86)\MICROSOFT VISUAL STUDIO 12.0\VC\INCLUDE\CLIMITS
C:\PROGRAM FILES (X86)\MICROSOFT VISUAL STUDIO 12.0\VC\INCLUDE\CWCHAR
C:\PROGRAM FILES (X86)\MICROSOFT VISUAL STUDIO 12.0\VC\INCLUDE\WCHAR.H
C:\PROGRAM FILES (X86)\MICROSOFT VISUAL STUDIO 12.0\VC\INCLUDE\SWPRINTF.INL
C:\PROGRAM FILES (X86)\MICROSOFT VISUAL STUDIO 12.0\VC\INCLUDE\WTIME.INL
C:\PROGRAM FILES (X86)\MICROSOFT VISUAL STUDIO 12.0\VC\INCLUDE\XSTDDEF
C:\PROGRAM FILES (X86)\MICROSOFT VISUAL STUDIO 12.0\VC\INCLUDE\CSTDDEF
C:\PROGRAM FILES (X86)\MICROSOFT VISUAL STUDIO 12.0\VC\INCLUDE\STDDEF.H
C:\PROGRAM FILES (X86)\MICROSOFT VISUAL STUDIO 12.0\VC\INCLUDE\INITIALIZER_LIST
C:\PROGRAM FILES (X86)\MICROSOFT VISUAL STUDIO 12.0\VC\INCLUDE\NEW
C:\PROGRAM FILES (X86)\MICROSOFT VISUAL STUDIO 12.0\VC\INCLUDE\EXCEPTION
C:\PROGRAM FILES (X86)\MICROSOFT VISUAL STUDIO 12.0\VC\INCLUDE\EH.H
C:\PROGRAM FILES (X86)\MICROSOFT VISUAL STUDIO 12.0\VC\INCLUDE\STRING.H
C:\PROGRAM FILES (X86)\MICROSOFT VISUAL STUDIO 12.0\VC\INCLUDE\XUTILITY
C:\PROGRAM FILES (X86)\MICROSOFT VISUAL STUDIO 12.0\VC\INCLUDE\UTILITY
C:\PROGRAM FILES (X86)\MICROSOFT VISUAL STUDIO 12.0\VC\INCLUDE\IOSFWD
C:\PROGRAM FILES (X86)\MICROSOFT VISUAL STUDIO 12.0\VC\INCLUDE\CSTDIO
C:\PROGRAM FILES (X86)\MICROSOFT VISUAL STUDIO 12.0\VC\INCLUDE\STDIO.H
C:\PROGRAM FILES (X86)\MICROSOFT VISUAL STUDIO 12.0\VC\INCLUDE\CSTRING
C:\PROGRAM FILES (X86)\MICROSOFT VISUAL STUDIO 12.0\VC\INCLUDE\CRTDBG.H
C:\PROGRAM FILES (X86)\MICROSOFT VISUAL STUDIO 12.0\VC\INCLUDE\TYPE_TRAITS
C:\PROGRAM FILES (X86)\MICROSOFT VISUAL STUDIO 12.0\VC\INCLUDE\XREFWRAP
C:\PROGRAM FILES (X86)\MICROSOFT VISUAL STUDIO 12.0\VC\INCLUDE\XATOMIC0.H
C:\PROGRAM FILES (X86)\MICROSOFT VISUAL STUDIO 12.0\VC\INCLUDE\INTRIN.H
C:\PROGRAM FILES (X86)\MICROSOFT VISUAL STUDIO 12.0\VC\INCLUDE\SETJMP.H
C:\PROGRAM FILES (X86)\MICROSOFT VISUAL STUDIO 12.0\VC\INCLUDE\IMMINTRIN.H
C:\PROGRAM FILES (X86)\MICROSOFT VISUAL STUDIO 12.0\VC\INCLUDE\WMMINTRIN.H
C:\PROGRAM FILES (X86)\MICROSOFT VISUAL STUDIO 12.0\VC\INCLUDE\AMMINTRIN.H
C:\PASCAL\OPENCV\INCLUDE\OPENCV2\CORE\VERSION.HPP
C:\PASCAL\OPENCV\INCLUDE\OPENCV2\CORE\BASE.HPP
C:\PASCAL\OPENCV\INCLUDE\OPENCV2\CORE\CVSTD.HPP
C:\PROGRAM FILES (X86)\MICROSOFT VISUAL STUDIO 12.0\VC\INCLUDE\CCTYPE
C:\PROGRAM FILES (X86)\MICROSOFT VISUAL STUDIO 12.0\VC\INCLUDE\CTYPE.H
C:\PROGRAM FILES (X86)\MICROSOFT VISUAL STUDIO 12.0\VC\INCLUDE\STRING
C:\PROGRAM FILES (X86)\MICROSOFT VISUAL STUDIO 12.0\VC\INCLUDE\ITERATOR
C:\PROGRAM FILES (X86)\MICROSOFT VISUAL STUDIO 12.0\VC\INCLUDE\ISTREAM
C:\PROGRAM FILES (X86)\MICROSOFT VISUAL STUDIO 12.0\VC\INCLUDE\OSTREAM
C:\PROGRAM FILES (X86)\MICROSOFT VISUAL STUDIO 12.0\VC\INCLUDE\IOS
C:\PROGRAM FILES (X86)\MICROSOFT VISUAL STUDIO 12.0\VC\INCLUDE\XLOCNUM
C:\PROGRAM FILES (X86)\MICROSOFT VISUAL STUDIO 12.0\VC\INCLUDE\STREAMBUF
C:\PROGRAM FILES (X86)\MICROSOFT VISUAL STUDIO 12.0\VC\INCLUDE\XIOSBASE
C:\PROGRAM FILES (X86)\MICROSOFT VISUAL STUDIO 12.0\VC\INCLUDE\XLOCALE
C:\PROGRAM FILES (X86)\MICROSOFT VISUAL STUDIO 12.0\VC\INCLUDE\STDEXCEPT
C:\PROGRAM FILES (X86)\MICROSOFT VISUAL STUDIO 12.0\VC\INCLUDE\XSTRING
C:\PROGRAM FILES (X86)\MICROSOFT VISUAL STUDIO 12.0\VC\INCLUDE\TYPEINFO
C:\PROGRAM FILES (X86)\MICROSOFT VISUAL STUDIO 12.0\VC\INCLUDE\XLOCINFO
C:\PROGRAM FILES (X86)\MICROSOFT VISUAL STUDIO 12.0\VC\INCLUDE\XLOCINFO.H
C:\PROGRAM FILES (X86)\MICROSOFT VISUAL STUDIO 12.0\VC\INCLUDE\LOCALE.H
C:\PROGRAM FILES (X86)\MICROSOFT VISUAL STUDIO 12.0\VC\INCLUDE\XDEBUG
C:\PROGRAM FILES (X86)\MICROSOFT VISUAL STUDIO 12.0\VC\INCLUDE\XFACET
C:\PROGRAM FILES (X86)\MICROSOFT VISUAL STUDIO 12.0\VC\INCLUDE\SYSTEM_ERROR
C:\PROGRAM FILES (X86)\MICROSOFT VISUAL STUDIO 12.0\VC\INCLUDE\CERRNO
C:\PROGRAM FILES (X86)\MICROSOFT VISUAL STUDIO 12.0\VC\INCLUDE\ERRNO.H
C:\PROGRAM FILES (X86)\MICROSOFT VISUAL STUDIO 12.0\VC\INCLUDE\SHARE.H
C:\PASCAL\OPENCV\INCLUDE\OPENCV2\CORE\PTR.INL.HPP
C:\PASCAL\OPENCV\INCLUDE\OPENCV2\HAL.HPP
C:\PASCAL\OPENCV\INCLUDE\OPENCV2\CORE\SSE_UTILS.HPP
C:\PASCAL\OPENCV\INCLUDE\OPENCV2\CORE\TRAITS.HPP
C:\PASCAL\OPENCV\INCLUDE\OPENCV2\CORE\MATX.HPP
C:\PASCAL\OPENCV\INCLUDE\OPENCV2\CORE\TYPES.HPP
C:\PROGRAM FILES (X86)\MICROSOFT VISUAL STUDIO 12.0\VC\INCLUDE\VECTOR
C:\PASCAL\OPENCV\INCLUDE\OPENCV2\CORE\MAT.HPP
C:\PASCAL\OPENCV\INCLUDE\OPENCV2\CORE\BUFFERPOOL.HPP
C:\PASCAL\OPENCV\INCLUDE\OPENCV2\CORE\MAT.INL.HPP
C:\PASCAL\OPENCV\INCLUDE\OPENCV2\CORE\PERSISTENCE.HPP
C:\PASCAL\OPENCV\INCLUDE\OPENCV2\CORE\OPERATIONS.HPP
C:\PASCAL\OPENCV\INCLUDE\OPENCV2\CORE\CVSTD.INL.HPP
C:\PROGRAM FILES (X86)\MICROSOFT VISUAL STUDIO 12.0\VC\INCLUDE\COMPLEX
C:\PROGRAM FILES (X86)\MICROSOFT VISUAL STUDIO 12.0\VC\INCLUDE\CCOMPLEX
C:\PROGRAM FILES (X86)\MICROSOFT VISUAL STUDIO 12.0\VC\INCLUDE\SSTREAM
C:\PROGRAM FILES (X86)\MICROSOFT VISUAL STUDIO 12.0\VC\INCLUDE\XCOMPLEX
C:\PASCAL\OPENCV\INCLUDE\OPENCV2\CORE\UTILITY.HPP
C:\PASCAL\OPENCV\INCLUDE\OPENCV2\CORE\CORE_C.H
C:\PASCAL\OPENCV\INCLUDE\OPENCV2\CORE\TYPES_C.H
C:\PROGRAM FILES (X86)\MICROSOFT VISUAL STUDIO 12.0\VC\INCLUDE\ASSERT.H
C:\PASCAL\OPENCV\INCLUDE\OPENCV2\CORE\OPTIM.HPP
C:\PASCAL\OPENCV\INCLUDE\OPENCV2\HIGHGUI\HIGHGUI.HPP
C:\PASCAL\OPENCV\INCLUDE\OPENCV2\HIGHGUI.HPP
C:\PASCAL\OPENCV\INCLUDE\OPENCV2\IMGCODECS.HPP
C:\PASCAL\OPENCV\INCLUDE\OPENCV2\VIDEOIO.HPP
C:\PASCAL\OPENCV\INCLUDE\OPENCV2\HIGHGUI\HIGHGUI_C.H
C:\PASCAL\OPENCV\INCLUDE\OPENCV2\IMGPROC\IMGPROC_C.H
C:\PASCAL\OPENCV\INCLUDE\OPENCV2\IMGPROC\TYPES_C.H
C:\PASCAL\OPENCV\INCLUDE\OPENCV2\IMGCODECS\IMGCODECS_C.H
C:\PASCAL\OPENCV\INCLUDE\OPENCV2\VIDEOIO\VIDEOIO_C.H
C:\PASCAL\OPENCV\INCLUDE\OPENCV2\VIDEO\VIDEO.HPP
C:\PASCAL\OPENCV\INCLUDE\OPENCV2\VIDEO.HPP
C:\PASCAL\OPENCV\INCLUDE\OPENCV2\VIDEO\TRACKING.HPP
C:\PASCAL\OPENCV\INCLUDE\OPENCV2\IMGPROC.HPP
C:\PASCAL\OPENCV\INCLUDE\OPENCV2\VIDEO\BACKGROUND_SEGM.HPP
C:\PASCAL\OPENCV\INCLUDE\OPENCV2\VIDEO\TRACKING_C.H
C:\PASCAL\OPENCV\INCLUDE\OPENCV2\OPENCV.HPP
C:\PASCAL\OPENCV\INCLUDE\OPENCV2\PHOTO.HPP
C:\PASCAL\OPENCV\INCLUDE\OPENCV2\PHOTO\PHOTO_C.H
C:\PROJECTS\PASCAL3\BOOTSTRAPCODE\SRC\PARAMETERS\BOOTSTRAPSYSPARAMS.H
C:\PROGRAM FILES (X86)\MICROSOFT VISUAL STUDIO 12.0\VC\INCLUDE\IO.H
C:\PROJECTS\PASCAL3\UTILITIES\UTILITIES\CAMPARAMS.H
C:\PROGRAM FILES (X86)\MICROSOFT VISUAL STUDIO 12.0\VC\INCLUDE\IOSTREAM
C:\PROJECTS\PASCAL3\BOOTSTRAPCODE\SRC\PARAMETERS\DEBUGFLAGS.H
C:\PROJECTS\PASCAL3\UTILITIES\UTILITIES\WRITEVECTOR.H
C:\PROJECTS\PASCAL3\UTILITIES\UTILITIES\DISPLAYIM.H
C:\PROGRAM FILES (X86)\MICROSOFT VISUAL STUDIO 12.0\VC\INCLUDE\IOMANIP
C:\PROGRAM FILES (X86)\MICROSOFT VISUAL STUDIO 12.0\VC\INCLUDE\XLOCMON
C:\PROGRAM FILES (X86)\MICROSOFT VISUAL STUDIO 12.0\VC\INCLUDE\XLOCTIME
C:\PROGRAM FILES (X86)\MICROSOFT VISUAL STUDIO 12.0\VC\INCLUDE\CTIME
C:\PROGRAM FILES (X86)\MICROSOFT VISUAL STUDIO 12.0\VC\INCLUDE\TIME.H
C:\PROGRAM FILES (X86)\MICROSOFT VISUAL STUDIO 12.0\VC\INCLUDE\TIME.INL
C:\PROGRA~1\BASLER\PYLON 5\DEVELOPMENT\INCLUDE\PYLON\PYLONINCLUDES.H
C:\PROGRA~1\BASLER\PYLON 5\DEVELOPMENT\INCLUDE\PYLON\PLATFORM.H
C:\PROGRA~1\BASLER\PYLON 5\DEVELOPMENT\INCLUDE\PYLON\PYLONLINKAGE.H
C:\PROGRA~1\BASLER\PYLON 5\DEVELOPMENT\INCLUDE\GENICAMVERSION.H
C:\PROGRA~1\BASLER\PYLON 5\DEVELOPMENT\INCLUDE\_GENICAMVERSION.H
C:\PROGRA~1\BASLER\PYLON 5\DEVELOPMENT\INCLUDE\BASE\GCLINKAGE.H
C:\PROGRA~1\BASLER\PYLON 5\DEVELOPMENT\INCLUDE\BASE\GCTYPES.H
C:\PROGRA~1\BASLER\PYLON 5\DEVELOPMENT\INCLUDE\BASE\GCNAMESPACE.H
C:\PROGRAM FILES (X86)\MICROSOFT VISUAL STUDIO 12.0\VC\INCLUDE\STDINT.H
C:\PROGRA~1\BASLER\PYLON 5\DEVELOPMENT\INCLUDE\BASE\GCSTRING.H
C:\PROGRA~1\BASLER\PYLON 5\DEVELOPMENT\INCLUDE\BASE\GCSTRINGVECTOR.H
C:\PROGRA~1\BASLER\PYLON 5\DEVELOPMENT\INCLUDE\GENAPI\GENAPI.H
C:\PROGRA~1\BASLER\PYLON 5\DEVELOPMENT\INCLUDE\BASE\GCBASE.H
C:\PROGRA~1\BASLER\PYLON 5\DEVELOPMENT\INCLUDE\BASE\GCARRAY.H
C:\PROGRA~1\BASLER\PYLON 5\DEVELOPMENT\INCLUDE\BASE\GCEXCEPTION.H
C:\PROGRAM FILES (X86)\MICROSOFT VISUAL STUDIO 12.0\VC\INCLUDE\CASSERT
C:\PROGRAM FILES (X86)\MICROSOFT VISUAL STUDIO 12.0\VC\INCLUDE\CSTDARG
C:\PROGRAM FILES (X86)\MICROSOFT VISUAL STUDIO 12.0\VC\INCLUDE\STDARG.H
C:\PROGRA~1\BASLER\PYLON 5\DEVELOPMENT\INCLUDE\BASE\GCUTILITIES.H
C:\PROGRAM FILES (X86)\WINDOWS KITS\8.1\INCLUDE\UM\WINDOWS.H
C:\PROGRAM FILES (X86)\WINDOWS KITS\8.1\INCLUDE\SHARED\WINAPIFAMILY.H
C:\PROGRAM FILES (X86)\MICROSOFT VISUAL STUDIO 12.0\VC\INCLUDE\EXCPT.H
C:\PROGRAM FILES (X86)\WINDOWS KITS\8.1\INCLUDE\SHARED\WINDEF.H
C:\PROGRAM FILES (X86)\WINDOWS KITS\8.1\INCLUDE\SHARED\MINWINDEF.H
C:\PROGRAM FILES (X86)\WINDOWS KITS\8.1\INCLUDE\SHARED\SPECSTRINGS.H
C:\PROGRAM FILES (X86)\WINDOWS KITS\8.1\INCLUDE\SHARED\SPECSTRINGS_STRICT.H
C:\PROGRAM FILES (X86)\WINDOWS KITS\8.1\INCLUDE\SHARED\SPECSTRINGS_UNDEF.H
C:\PROGRAM FILES (X86)\WINDOWS KITS\8.1\INCLUDE\SHARED\DRIVERSPECS.H
C:\PROGRAM FILES (X86)\WINDOWS KITS\8.1\INCLUDE\SHARED\SDV_DRIVERSPECS.H
C:\PROGRAM FILES (X86)\WINDOWS KITS\8.1\INCLUDE\UM\WINNT.H
C:\PROGRAM FILES (X86)\WINDOWS KITS\8.1\INCLUDE\SHARED\KERNELSPECS.H
C:\PROGRAM FILES (X86)\WINDOWS KITS\8.1\INCLUDE\SHARED\BASETSD.H
C:\PROGRAM FILES (X86)\WINDOWS KITS\8.1\INCLUDE\SHARED\GUIDDEF.H
C:\PROGRAM FILES (X86)\WINDOWS KITS\8.1\INCLUDE\SHARED\PSHPACK4.H
C:\PROGRAM FILES (X86)\WINDOWS KITS\8.1\INCLUDE\SHARED\POPPACK.H
C:\PROGRAM FILES (X86)\WINDOWS KITS\8.1\INCLUDE\SHARED\PSHPACK2.H
C:\PROGRAM FILES (X86)\WINDOWS KITS\8.1\INCLUDE\SHARED\PSHPACK8.H
C:\PROGRAM FILES (X86)\WINDOWS KITS\8.1\INCLUDE\SHARED\APISET.H
C:\PROGRAM FILES (X86)\WINDOWS KITS\8.1\INCLUDE\SHARED\KTMTYPES.H
C:\PROGRAM FILES (X86)\WINDOWS KITS\8.1\INCLUDE\UM\WINBASE.H
C:\PROGRAM FILES (X86)\WINDOWS KITS\8.1\INCLUDE\SHARED\APISETCCONV.H
C:\PROGRAM FILES (X86)\WINDOWS KITS\8.1\INCLUDE\UM\MINWINBASE.H
C:\PROGRAM FILES (X86)\WINDOWS KITS\8.1\INCLUDE\UM\PROCESSENV.H
C:\PROGRAM FILES (X86)\WINDOWS KITS\8.1\INCLUDE\UM\FILEAPI.H
C:\PROGRAM FILES (X86)\WINDOWS KITS\8.1\INCLUDE\UM\DEBUGAPI.H
C:\PROGRAM FILES (X86)\WINDOWS KITS\8.1\INCLUDE\UM\UTILAPISET.H
C:\PROGRAM FILES (X86)\WINDOWS KITS\8.1\INCLUDE\UM\HANDLEAPI.H
C:\PROGRAM FILES (X86)\WINDOWS KITS\8.1\INCLUDE\UM\ERRHANDLINGAPI.H
C:\PROGRAM FILES (X86)\WINDOWS KITS\8.1\INCLUDE\UM\FIBERSAPI.H
C:\PROGRAM FILES (X86)\WINDOWS KITS\8.1\INCLUDE\UM\NAMEDPIPEAPI.H
C:\PROGRAM FILES (X86)\WINDOWS KITS\8.1\INCLUDE\UM\PROFILEAPI.H
C:\PROGRAM FILES (X86)\WINDOWS KITS\8.1\INCLUDE\UM\HEAPAPI.H
C:\PROGRAM FILES (X86)\WINDOWS KITS\8.1\INCLUDE\UM\IOAPISET.H
C:\PROGRAM FILES (X86)\WINDOWS KITS\8.1\INCLUDE\UM\SYNCHAPI.H
C:\PROGRAM FILES (X86)\WINDOWS KITS\8.1\INCLUDE\UM\INTERLOCKEDAPI.H
C:\PROGRAM FILES (X86)\WINDOWS KITS\8.1\INCLUDE\UM\PROCESSTHREADSAPI.H
C:\PROGRAM FILES (X86)\WINDOWS KITS\8.1\INCLUDE\UM\SYSINFOAPI.H
C:\PROGRAM FILES (X86)\WINDOWS KITS\8.1\INCLUDE\UM\MEMORYAPI.H
C:\PROGRAM FILES (X86)\WINDOWS KITS\8.1\INCLUDE\UM\THREADPOOLLEGACYAPISET.H
C:\PROGRAM FILES (X86)\WINDOWS KITS\8.1\INCLUDE\UM\THREADPOOLAPISET.H
C:\PROGRAM FILES (X86)\WINDOWS KITS\8.1\INCLUDE\UM\BEMAPISET.H
C:\PROGRAM FILES (X86)\WINDOWS KITS\8.1\INCLUDE\UM\JOBAPI.H
C:\PROGRAM FILES (X86)\WINDOWS KITS\8.1\INCLUDE\UM\WOW64APISET.H
C:\PROGRAM FILES (X86)\WINDOWS KITS\8.1\INCLUDE\UM\LIBLOADERAPI.H
C:\PROGRAM FILES (X86)\WINDOWS KITS\8.1\INCLUDE\UM\SECURITYBASEAPI.H
C:\PROGRAM FILES (X86)\WINDOWS KITS\8.1\INCLUDE\UM\NAMESPACEAPI.H
C:\PROGRAM FILES (X86)\WINDOWS KITS\8.1\INCLUDE\UM\SYSTEMTOPOLOGYAPI.H
C:\PROGRAM FILES (X86)\WINDOWS KITS\8.1\INCLUDE\UM\PROCESSTOPOLOGYAPI.H
C:\PROGRAM FILES (X86)\WINDOWS KITS\8.1\INCLUDE\UM\SECURITYAPPCONTAINER.H
C:\PROGRAM FILES (X86)\WINDOWS KITS\8.1\INCLUDE\UM\REALTIMEAPISET.H
C:\PROGRAM FILES (X86)\WINDOWS KITS\8.1\INCLUDE\SHARED\WINERROR.H
C:\PROGRAM FILES (X86)\WINDOWS KITS\8.1\INCLUDE\UM\TIMEZONEAPI.H
C:\PROGRAM FILES (X86)\WINDOWS KITS\8.1\INCLUDE\UM\WINGDI.H
C:\PROGRAM FILES (X86)\WINDOWS KITS\8.1\INCLUDE\SHARED\PSHPACK1.H
C:\PROGRAM FILES (X86)\WINDOWS KITS\8.1\INCLUDE\UM\WINUSER.H
C:\PROGRAM FILES (X86)\WINDOWS KITS\8.1\INCLUDE\SHARED\TVOUT.H
C:\PROGRAM FILES (X86)\WINDOWS KITS\8.1\INCLUDE\UM\WINNLS.H
C:\PROGRAM FILES (X86)\WINDOWS KITS\8.1\INCLUDE\UM\DATETIMEAPI.H
C:\PROGRAM FILES (X86)\WINDOWS KITS\8.1\INCLUDE\UM\STRINGAPISET.H
C:\PROGRAM FILES (X86)\WINDOWS KITS\8.1\INCLUDE\UM\WINCON.H
C:\PROGRAM FILES (X86)\WINDOWS KITS\8.1\INCLUDE\UM\CONSOLEAPI.H
C:\PROGRAM FILES (X86)\WINDOWS KITS\8.1\INCLUDE\UM\WINVER.H
C:\PROGRAM FILES (X86)\WINDOWS KITS\8.1\INCLUDE\UM\VERRSRC.H
C:\PROGRAM FILES (X86)\WINDOWS KITS\8.1\INCLUDE\UM\WINREG.H
C:\PROGRAM FILES (X86)\WINDOWS KITS\8.1\INCLUDE\UM\REASON.H
C:\PROGRAM FILES (X86)\WINDOWS KITS\8.1\INCLUDE\UM\WINNETWK.H
C:\PROGRAM FILES (X86)\WINDOWS KITS\8.1\INCLUDE\SHARED\WNNC.H
C:\PROGRAM FILES (X86)\WINDOWS KITS\8.1\INCLUDE\SHARED\STRALIGN.H
C:\PROGRAM FILES (X86)\WINDOWS KITS\8.1\INCLUDE\UM\WINSVC.H
C:\PROGRAM FILES (X86)\WINDOWS KITS\8.1\INCLUDE\UM\MCX.H
C:\PROGRAM FILES (X86)\WINDOWS KITS\8.1\INCLUDE\UM\IMM.H
C:\PROGRAM FILES (X86)\WINDOWS KITS\8.1\INCLUDE\UM\IME_CMODES.H
C:\PROGRA~1\BASLER\PYLON 5\DEVELOPMENT\INCLUDE\GENAPI\GENAPIDLL.H
C:\PROGRA~1\BASLER\PYLON 5\DEVELOPMENT\INCLUDE\GENAPI\GENAPINAMESPACE.H
C:\PROGRA~1\BASLER\PYLON 5\DEVELOPMENT\INCLUDE\GENAPI\POINTER.H
C:\PROGRA~1\BASLER\PYLON 5\DEVELOPMENT\INCLUDE\GENICAMFWD.H
C:\PROGRAM FILES (X86)\WINDOWS KITS\8.1\INCLUDE\UM\OBJBASE.H
C:\PROGRAM FILES (X86)\WINDOWS KITS\8.1\INCLUDE\SHARED\RPC.H
C:\PROGRAM FILES (X86)\WINDOWS KITS\8.1\INCLUDE\SHARED\RPCDCE.H
C:\PROGRAM FILES (X86)\WINDOWS KITS\8.1\INCLUDE\SHARED\RPCDCEP.H
C:\PROGRAM FILES (X86)\WINDOWS KITS\8.1\INCLUDE\UM\RPCNSI.H
C:\PROGRAM FILES (X86)\WINDOWS KITS\8.1\INCLUDE\SHARED\RPCNTERR.H
C:\PROGRAM FILES (X86)\WINDOWS KITS\8.1\INCLUDE\SHARED\RPCASYNC.H
C:\PROGRAM FILES (X86)\WINDOWS KITS\8.1\INCLUDE\SHARED\RPCNDR.H
C:\PROGRAM FILES (X86)\WINDOWS KITS\8.1\INCLUDE\UM\RPCNSIP.H
C:\PROGRAM FILES (X86)\WINDOWS KITS\8.1\INCLUDE\SHARED\RPCSAL.H
C:\PROGRAM FILES (X86)\WINDOWS KITS\8.1\INCLUDE\UM\COMBASEAPI.H
C:\PROGRAM FILES (X86)\WINDOWS KITS\8.1\INCLUDE\SHARED\WTYPESBASE.H
C:\PROGRAM FILES (X86)\WINDOWS KITS\8.1\INCLUDE\UM\UNKNWNBASE.H
C:\PROGRAM FILES (X86)\WINDOWS KITS\8.1\INCLUDE\UM\OLE2.H
C:\PROGRAM FILES (X86)\WINDOWS KITS\8.1\INCLUDE\UM\OLEAUTO.H
C:\PROGRAM FILES (X86)\WINDOWS KITS\8.1\INCLUDE\UM\OAIDL.H
C:\PROGRAM FILES (X86)\WINDOWS KITS\8.1\INCLUDE\UM\OBJIDL.H
C:\PROGRAM FILES (X86)\WINDOWS KITS\8.1\INCLUDE\UM\UNKNWN.H
C:\PROGRAM FILES (X86)\WINDOWS KITS\8.1\INCLUDE\SHARED\WTYPES.H
C:\PROGRAM FILES (X86)\WINDOWS KITS\8.1\INCLUDE\UM\OLEIDL.H
C:\PROGRAM FILES (X86)\WINDOWS KITS\8.1\INCLUDE\UM\OBJIDLBASE.H
C:\PROGRAM FILES (X86)\WINDOWS KITS\8.1\INCLUDE\UM\CGUID.H
C:\PROGRAM FILES (X86)\WINDOWS KITS\8.1\INCLUDE\UM\URLMON.H
C:\PROGRAM FILES (X86)\WINDOWS KITS\8.1\INCLUDE\UM\SERVPROV.H
C:\PROGRAM FILES (X86)\WINDOWS KITS\8.1\INCLUDE\UM\MSXML.H
C:\PROGRAM FILES (X86)\WINDOWS KITS\8.1\INCLUDE\UM\PROPIDL.H
C:\PROGRA~1\BASLER\PYLON 5\DEVELOPMENT\INCLUDE\GENAPI\IENUMERATION.H
C:\PROGRA~1\BASLER\PYLON 5\DEVELOPMENT\INCLUDE\GENAPI\IENUMENTRY.H
C:\PROGRA~1\BASLER\PYLON 5\DEVELOPMENT\INCLUDE\GENAPI\IVALUE.H
C:\PROGRA~1\BASLER\PYLON 5\DEVELOPMENT\INCLUDE\GENAPI\TYPES.H
C:\PROGRA~1\BASLER\PYLON 5\DEVELOPMENT\INCLUDE\GENAPI\AUTOVECTOR.H
C:\PROGRA~1\BASLER\PYLON 5\DEVELOPMENT\INCLUDE\GENAPI\IBASE.H
C:\PROGRA~1\BASLER\PYLON 5\DEVELOPMENT\INCLUDE\GENAPI\REFERENCE.H
C:\PROGRA~1\BASLER\PYLON 5\DEVELOPMENT\INCLUDE\GENAPI\INODE.H
C:\PROGRA~1\BASLER\PYLON 5\DEVELOPMENT\INCLUDE\GENAPI\CONTAINER.H
C:\PROGRA~1\BASLER\PYLON 5\DEVELOPMENT\INCLUDE\GENAPI\IFLOAT.H
C:\PROGRA~1\BASLER\PYLON 5\DEVELOPMENT\INCLUDE\GENAPI\IINTEGER.H
C:\PROGRA~1\BASLER\PYLON 5\DEVELOPMENT\INCLUDE\GENAPI\ICATEGORY.H
C:\PROGRA~1\BASLER\PYLON 5\DEVELOPMENT\INCLUDE\GENAPI\IREGISTER.H
C:\PROGRA~1\BASLER\PYLON 5\DEVELOPMENT\INCLUDE\GENAPI\IBOOLEAN.H
C:\PROGRA~1\BASLER\PYLON 5\DEVELOPMENT\INCLUDE\GENAPI\IPORT.H
C:\PROGRA~1\BASLER\PYLON 5\DEVELOPMENT\INCLUDE\GENAPI\IPORTRECORDER.H
C:\PROGRA~1\BASLER\PYLON 5\DEVELOPMENT\INCLUDE\GENAPI\IPORTCONSTRUCT.H
C:\PROGRA~1\BASLER\PYLON 5\DEVELOPMENT\INCLUDE\GENAPI\ICHUNKPORT.H
C:\PROGRA~1\BASLER\PYLON 5\DEVELOPMENT\INCLUDE\GENAPI\ISTRING.H
C:\PROGRA~1\BASLER\PYLON 5\DEVELOPMENT\INCLUDE\GENAPI\INODEMAP.H
C:\PROGRA~1\BASLER\PYLON 5\DEVELOPMENT\INCLUDE\GENAPI\SYNCH.H
C:\PROGRA~1\BASLER\PYLON 5\DEVELOPMENT\INCLUDE\GENAPI\IDESTROY.H
C:\PROGRA~1\BASLER\PYLON 5\DEVELOPMENT\INCLUDE\GENAPI\IDEVICEINFO.H
C:\PROGRA~1\BASLER\PYLON 5\DEVELOPMENT\INCLUDE\GENAPI\ISELECTOR.H
C:\PROGRA~1\BASLER\PYLON 5\DEVELOPMENT\INCLUDE\GENAPI\ICOMMAND.H
C:\PROGRA~1\BASLER\PYLON 5\DEVELOPMENT\INCLUDE\GENAPI\IUSERDATA.H
C:\PROGRA~1\BASLER\PYLON 5\DEVELOPMENT\INCLUDE\GENAPI\NODEMAPREF.H
C:\PROGRA~1\BASLER\PYLON 5\DEVELOPMENT\INCLUDE\GENAPI\NODEMAPFACTORY.H
C:\PROGRA~1\BASLER\PYLON 5\DEVELOPMENT\INCLUDE\GENAPI\GENAPIVERSION.H
C:\PROGRAM FILES (X86)\MICROSOFT VISUAL STUDIO 12.0\VC\INCLUDE\MEMORY
C:\PROGRA~1\BASLER\PYLON 5\DEVELOPMENT\INCLUDE\GENAPI\NODECALLBACK.H
C:\PROGRA~1\BASLER\PYLON 5\DEVELOPMENT\INCLUDE\GENAPI\PERSISTENCE.H
C:\PROGRAM FILES (X86)\MICROSOFT VISUAL STUDIO 12.0\VC\INCLUDE\LIST
C:\PROGRA~1\BASLER\PYLON 5\DEVELOPMENT\INCLUDE\GENAPI\STRUCTPORT.H
C:\PROGRA~1\BASLER\PYLON 5\DEVELOPMENT\INCLUDE\GENAPI\PORTIMPL.H
C:\PROGRA~1\BASLER\PYLON 5\DEVELOPMENT\INCLUDE\GENAPI\SELECTORSET.H
C:\PROGRA~1\BASLER\PYLON 5\DEVELOPMENT\INCLUDE\GENAPI\ISELECTORDIGIT.H
C:\PROGRA~1\BASLER\PYLON 5\DEVELOPMENT\INCLUDE\GENAPI\GENAPILINKAGE.H
C:\PROGRA~1\BASLER\PYLON 5\DEVELOPMENT\INCLUDE\PYLON\STDINCLUDE.H
C:\PROGRA~1\BASLER\PYLON 5\DEVELOPMENT\INCLUDE\PYLON\TYPEMAPPINGS.H
C:\PROGRA~1\BASLER\PYLON 5\DEVELOPMENT\INCLUDE\PYLON\PYLONBASE.H
C:\PROGRA~1\BASLER\PYLON 5\DEVELOPMENT\INCLUDE\PYLON\PYLONVERSIONINFO.H
C:\PROGRA~1\BASLER\PYLON 5\DEVELOPMENT\INCLUDE\PYLON\INFO.H
C:\PROGRA~1\BASLER\PYLON 5\DEVELOPMENT\INCLUDE\PYLON\TLINFO.H
C:\PROGRA~1\BASLER\PYLON 5\DEVELOPMENT\INCLUDE\PYLON\DEVICECLASS.H
C:\PROGRA~1\BASLER\PYLON 5\DEVELOPMENT\INCLUDE\PYLON\DEVICEINFO.H
C:\PROGRA~1\BASLER\PYLON 5\DEVELOPMENT\INCLUDE\PYLON\CONTAINER.H
C:\PROGRA~1\BASLER\PYLON 5\DEVELOPMENT\INCLUDE\PYLON\INTERFACEINFO.H
C:\PROGRA~1\BASLER\PYLON 5\DEVELOPMENT\INCLUDE\PYLON\DEVICEFACTORY.H
C:\PROGRA~1\BASLER\PYLON 5\DEVELOPMENT\INCLUDE\PYLON\DEVICEACCESSMODE.H
C:\PROGRAM FILES (X86)\MICROSOFT VISUAL STUDIO 12.0\VC\INCLUDE\BITSET
C:\PROGRA~1\BASLER\PYLON 5\DEVELOPMENT\INCLUDE\PYLON\TRANSPORTLAYER.H
C:\PROGRA~1\BASLER\PYLON 5\DEVELOPMENT\INCLUDE\PYLON\TLFACTORY.H
C:\PROGRA~1\BASLER\PYLON 5\DEVELOPMENT\INCLUDE\PYLON\EVENTADAPTER.H
C:\PROGRA~1\BASLER\PYLON 5\DEVELOPMENT\INCLUDE\PYLON\CALLBACK.H
C:\PROGRA~1\BASLER\PYLON 5\DEVELOPMENT\INCLUDE\PYLON\DEVICE.H
C:\PROGRA~1\BASLER\PYLON 5\DEVELOPMENT\INCLUDE\PYLON\WAITOBJECT.H
C:\PROGRA~1\BASLER\PYLON 5\DEVELOPMENT\INCLUDE\PYLON\WAITOBJECTS.H
C:\PROGRA~1\BASLER\PYLON 5\DEVELOPMENT\INCLUDE\PYLON\STREAMGRABBER.H
C:\PROGRA~1\BASLER\PYLON 5\DEVELOPMENT\INCLUDE\PYLON\PIXELTYPE.H
C:\PROGRA~1\BASLER\PYLON 5\DEVELOPMENT\INCLUDE\PYLON\PIXEL.H
C:\PROGRA~1\BASLER\PYLON 5\DEVELOPMENT\INCLUDE\PYLON\PIXELTYPEMAPPER.H
C:\PROGRA~1\BASLER\PYLON 5\DEVELOPMENT\INCLUDE\GENAPI\IENUMERATIONT.H
C:\PROGRA~1\BASLER\PYLON 5\DEVELOPMENT\INCLUDE\GENAPI\COMPATIBILITY.H
C:\PROGRA~1\BASLER\PYLON 5\DEVELOPMENT\INCLUDE\PYLON\RESULT.H
C:\PROGRA~1\BASLER\PYLON 5\DEVELOPMENT\INCLUDE\PYLON\PAYLOADTYPE.H
C:\PROGRA~1\BASLER\PYLON 5\DEVELOPMENT\INCLUDE\PYLON\RESULTIMAGE.H
C:\PROGRA~1\BASLER\PYLON 5\DEVELOPMENT\INCLUDE\PYLON\IMAGE.H
C:\PROGRA~1\BASLER\PYLON 5\DEVELOPMENT\INCLUDE\PYLON\CHUNKPARSER.H
C:\PROGRA~1\BASLER\PYLON 5\DEVELOPMENT\INCLUDE\PYLON\EVENTGRABBER.H
C:\PROGRA~1\BASLER\PYLON 5\DEVELOPMENT\INCLUDE\PYLON\EVENTGRABBERPROXY.H
C:\PROGRAM FILES\BASLER\PYLON 5\DEVELOPMENT\INCLUDE\PYLON\NODEMAPPROXY.H
C:\PROGRA~1\BASLER\PYLON 5\DEVELOPMENT\INCLUDE\PYLON\ACQUIRESINGLEFRAMECONFIGURATION.H
C:\PROGRA~1\BASLER\PYLON 5\DEVELOPMENT\INCLUDE\PYLON\INSTANTCAMERA.H
C:\PROGRA~1\BASLER\PYLON 5\DEVELOPMENT\INCLUDE\PYLON\IMAGEEVENTHANDLER.H
C:\PROGRA~1\BASLER\PYLON 5\DEVELOPMENT\INCLUDE\PYLON\GRABRESULTPTR.H
C:\PROGRA~1\BASLER\PYLON 5\DEVELOPMENT\INCLUDE\PYLON\GRABRESULTDATA.H
C:\PROGRA~1\BASLER\PYLON 5\DEVELOPMENT\INCLUDE\PYLON\CONFIGURATIONEVENTHANDLER.H
C:\PROGRA~1\BASLER\PYLON 5\DEVELOPMENT\INCLUDE\PYLON\CAMERAEVENTHANDLER.H
C:\PROGRA~1\BASLER\PYLON 5\DEVELOPMENT\INCLUDE\PYLON\BUFFERFACTORY.H
C:\PROGRA~1\BASLER\PYLON 5\DEVELOPMENT\INCLUDE\PYLON\SFNCVERSION.H
C:\PROGRA~1\BASLER\PYLON 5\DEVELOPMENT\INCLUDE\PYLON\_INSTANTCAMERAPARAMS.H
C:\PROGRA~1\BASLER\PYLON 5\DEVELOPMENT\INCLUDE\GENAPI\DLLLOAD.H
C:\PROGRA~1\BASLER\PYLON 5\DEVELOPMENT\INCLUDE\PYLON\INSTANTCAMERAARRAY.H
C:\PROGRA~1\BASLER\PYLON 5\DEVELOPMENT\INCLUDE\PYLON\ACQUIRECONTINUOUSCONFIGURATION.H
C:\PROGRA~1\BASLER\PYLON 5\DEVELOPMENT\INCLUDE\PYLON\SOFTWARETRIGGERCONFIGURATION.H
C:\PROGRA~1\BASLER\PYLON 5\DEVELOPMENT\INCLUDE\PYLON\PYLONUTILITYINCLUDES.H
C:\PROGRA~1\BASLER\PYLON 5\DEVELOPMENT\INCLUDE\PYLON\PYLONUTILITY.H
C:\PROGRA~1\BASLER\PYLON 5\DEVELOPMENT\INCLUDE\PYLON\IMAGEFORMAT.H
C:\PROGRA~1\BASLER\PYLON 5\DEVELOPMENT\INCLUDE\PYLON\PYLONIMAGE.H
C:\PROGRA~1\BASLER\PYLON 5\DEVELOPMENT\INCLUDE\PYLON\PYLONIMAGEBASE.H
C:\PROGRA~1\BASLER\PYLON 5\DEVELOPMENT\INCLUDE\PYLON\REUSABLEIMAGE.H
C:\PROGRA~1\BASLER\PYLON 5\DEVELOPMENT\INCLUDE\PYLON\IMAGEPERSISTENCE.H
C:\PROGRA~1\BASLER\PYLON 5\DEVELOPMENT\INCLUDE\PYLON\PIXELDATA.H
C:\PROGRA~1\BASLER\PYLON 5\DEVELOPMENT\INCLUDE\PYLON\IMAGEFORMATCONVERTER.H
C:\PROGRA~1\BASLER\PYLON 5\DEVELOPMENT\INCLUDE\PYLON\_IMAGEFORMATCONVERTERPARAMS.H
C:\PROGRA~1\BASLER\PYLON 5\DEVELOPMENT\INCLUDE\PYLON\FEATUREPERSISTENCE.H
C:\PROGRA~1\BASLER\PYLON 5\DEVELOPMENT\INCLUDE\PYLON\PYLONBITMAPIMAGE.H
C:\PROGRA~1\BASLER\PYLON 5\DEVELOPMENT\INCLUDE\PYLON\AVIWRITER.H
C:\PROGRA~1\BASLER\PYLON 5\DEVELOPMENT\INCLUDE\PYLON\PIXELFORMATCONVERTER.H
C:\PROGRA~1\BASLER\PYLON 5\DEVELOPMENT\INCLUDE\PYLON\PIXELFORMATCONVERTERBAYER.H
C:\PROGRA~1\BASLER\PYLON 5\DEVELOPMENT\INCLUDE\PYLON\PIXELFORMATCONVERTERBAYER16.H
C:\PROGRA~1\BASLER\PYLON 5\DEVELOPMENT\INCLUDE\PYLON\PIXELFORMATCONVERTERMONOXX.H
C:\PROGRA~1\BASLER\PYLON 5\DEVELOPMENT\INCLUDE\PYLON\PIXELFORMATCONVERTERGAMMA.H
C:\PROGRA~1\BASLER\PYLON 5\DEVELOPMENT\INCLUDE\PYLON\PIXELFORMATCONVERTERMONOPACKED.H
C:\PROGRA~1\BASLER\PYLON 5\DEVELOPMENT\INCLUDE\PYLON\PIXELFORMATCONVERTERGAMMAPACKED.H
C:\PROGRA~1\BASLER\PYLON 5\DEVELOPMENT\INCLUDE\PYLON\PIXELFORMATCONVERTERRGB.H
C:\PROGRA~1\BASLER\PYLON 5\DEVELOPMENT\INCLUDE\PYLON\PIXELFORMATCONVERTERTRUNCATE.H
C:\PROGRA~1\BASLER\PYLON 5\DEVELOPMENT\INCLUDE\PYLON\PIXELFORMATCONVERTERTRUNCATEPACKED.H
C:\PROGRA~1\BASLER\PYLON 5\DEVELOPMENT\INCLUDE\PYLON\PIXELFORMATCONVERTERYUV422.H
C:\PROGRA~1\BASLER\PYLON 5\DEVELOPMENT\INCLUDE\PYLON\PYLONGUI.H
C:\PROGRA~1\BASLER\PYLON 5\DEVELOPMENT\INCLUDE\PYLON\USB\BASLERUSBINSTANTCAMERA.H
C:\PROGRA~1\BASLER\PYLON 5\DEVELOPMENT\INCLUDE\PYLON\USB\_BASLERUSBCAMERAPARAMS.H
C:\PROGRA~1\BASLER\PYLON 5\DEVELOPMENT\INCLUDE\PYLON\USB\BASLERUSBDEVICEINFO.H
C:\PROGRA~1\BASLER\PYLON 5\DEVELOPMENT\INCLUDE\PYLON\USB\BASLERUSBCONFIGURATIONEVENTHANDLER.H
C:\PROGRA~1\BASLER\PYLON 5\DEVELOPMENT\INCLUDE\PYLON\USB\BASLERUSBIMAGEEVENTHANDLER.H
C:\PROGRA~1\BASLER\PYLON 5\DEVELOPMENT\INCLUDE\PYLON\USB\BASLERUSBGRABRESULTPTR.H
C:\PROGRA~1\BASLER\PYLON 5\DEVELOPMENT\INCLUDE\PYLON\USB\BASLERUSBGRABRESULTDATA.H
C:\PROGRA~1\BASLER\PYLON 5\DEVELOPMENT\INCLUDE\PYLON\USB\_USBCHUNKDATA.H
C:\PROGRA~1\BASLER\PYLON 5\DEVELOPMENT\INCLUDE\PYLON\PRIVATE\DEVICESPECIFICGRABRESULTPTR.H
C:\PROGRA~1\BASLER\PYLON 5\DEVELOPMENT\INCLUDE\PYLON\USB\BASLERUSBCAMERAEVENTHANDLER.H
C:\PROGRA~1\BASLER\PYLON 5\DEVELOPMENT\INCLUDE\PYLON\PRIVATE\DEVICESPECIFICINSTANTCAMERA.H
C:\PROGRA~1\BASLER\PYLON 5\DEVELOPMENT\INCLUDE\PYLON\PRIVATE\DEVICESPECIFICCONFIGURATIONEVENTHANDLERTIE.H
C:\PROGRA~1\BASLER\PYLON 5\DEVELOPMENT\INCLUDE\PYLON\PRIVATE\DEVICESPECIFICIMAGEEVENTHANDLERTIE.H
C:\PROGRA~1\BASLER\PYLON 5\DEVELOPMENT\INCLUDE\PYLON\PRIVATE\DEVICESPECIFICCAMERAEVENTHANDLERTIE.H
C:\PROGRA~1\BASLER\PYLON 5\DEVELOPMENT\INCLUDE\PYLON\USB\_USBSTREAMPARAMS.H
C:\PROGRA~1\BASLER\PYLON 5\DEVELOPMENT\INCLUDE\PYLON\USB\_USBEVENTPARAMS.H
C:\PROGRA~1\BASLER\PYLON 5\DEVELOPMENT\INCLUDE\PYLON\USB\_USBTLPARAMS.H
^C:\PROJECTS\PASCAL3\BOOTSTRAPCODE\SRC\IMAGEPROCESSING\INTEGRALFILTER.CPP
C:\PROJECTS\PASCAL3\UTILITIES\UTILITIES\STDAFX.H
C:\PROJECTS\PASCAL3\UTILITIES\UTILITIES\TARGETVER.H
C:\PROGRAM FILES (X86)\WINDOWS KITS\8.1\INCLUDE\SHARED\SDKDDKVER.H
C:\PROGRAM FILES (X86)\MICROSOFT VISUAL STUDIO 12.0\VC\INCLUDE\IO.H
C:\PROGRAM FILES (X86)\MICROSOFT VISUAL STUDIO 12.0\VC\INCLUDE\CRTDEFS.H
C:\PROGRAM FILES (X86)\MICROSOFT VISUAL STUDIO 12.0\VC\INCLUDE\SAL.H
C:\PROGRAM FILES (X86)\MICROSOFT VISUAL STUDIO 12.0\VC\INCLUDE\CONCURRENCYSAL.H
C:\PROGRAM FILES (X86)\MICROSOFT VISUAL STUDIO 12.0\VC\INCLUDE\VADEFS.H
C:\PROGRAM FILES (X86)\MICROSOFT VISUAL STUDIO 12.0\VC\INCLUDE\ALGORITHM
C:\PROGRAM FILES (X86)\MICROSOFT VISUAL STUDIO 12.0\VC\INCLUDE\XMEMORY
C:\PROGRAM FILES (X86)\MICROSOFT VISUAL STUDIO 12.0\VC\INCLUDE\XMEMORY0
C:\PROGRAM FILES (X86)\MICROSOFT VISUAL STUDIO 12.0\VC\INCLUDE\CSTDLIB
C:\PROGRAM FILES (X86)\MICROSOFT VISUAL STUDIO 12.0\VC\INCLUDE\YVALS.H
C:\PROGRAM FILES (X86)\MICROSOFT VISUAL STUDIO 12.0\VC\INCLUDE\XKEYCHECK.H
C:\PROGRAM FILES (X86)\MICROSOFT VISUAL STUDIO 12.0\VC\INCLUDE\USE_ANSI.H
C:\PROGRAM FILES (X86)\MICROSOFT VISUAL STUDIO 12.0\VC\INCLUDE\STDLIB.H
C:\PROGRAM FILES (X86)\MICROSOFT VISUAL STUDIO 12.0\VC\INCLUDE\LIMITS.H
C:\PROGRAM FILES (X86)\MICROSOFT VISUAL STUDIO 12.0\VC\INCLUDE\LIMITS
C:\PROGRAM FILES (X86)\MICROSOFT VISUAL STUDIO 12.0\VC\INCLUDE\YMATH.H
C:\PROGRAM FILES (X86)\MICROSOFT VISUAL STUDIO 12.0\VC\INCLUDE\CFLOAT
C:\PROGRAM FILES (X86)\MICROSOFT VISUAL STUDIO 12.0\VC\INCLUDE\FLOAT.H
C:\PROGRAM FILES (X86)\MICROSOFT VISUAL STUDIO 12.0\VC\INCLUDE\CRTWRN.H
C:\PROGRAM FILES (X86)\MICROSOFT VISUAL STUDIO 12.0\VC\INCLUDE\CLIMITS
C:\PROGRAM FILES (X86)\MICROSOFT VISUAL STUDIO 12.0\VC\INCLUDE\CMATH
C:\PROGRAM FILES (X86)\MICROSOFT VISUAL STUDIO 12.0\VC\INCLUDE\MATH.H
C:\PROGRAM FILES (X86)\MICROSOFT VISUAL STUDIO 12.0\VC\INCLUDE\XTGMATH.H
C:\PROGRAM FILES (X86)\MICROSOFT VISUAL STUDIO 12.0\VC\INCLUDE\XTR1COMMON
C:\PROGRAM FILES (X86)\MICROSOFT VISUAL STUDIO 12.0\VC\INCLUDE\CWCHAR
C:\PROGRAM FILES (X86)\MICROSOFT VISUAL STUDIO 12.0\VC\INCLUDE\WCHAR.H
C:\PROGRAM FILES (X86)\MICROSOFT VISUAL STUDIO 12.0\VC\INCLUDE\SWPRINTF.INL
C:\PROGRAM FILES (X86)\MICROSOFT VISUAL STUDIO 12.0\VC\INCLUDE\WTIME.INL
C:\PROGRAM FILES (X86)\MICROSOFT VISUAL STUDIO 12.0\VC\INCLUDE\XSTDDEF
C:\PROGRAM FILES (X86)\MICROSOFT VISUAL STUDIO 12.0\VC\INCLUDE\CSTDDEF
C:\PROGRAM FILES (X86)\MICROSOFT VISUAL STUDIO 12.0\VC\INCLUDE\STDDEF.H
C:\PROGRAM FILES (X86)\MICROSOFT VISUAL STUDIO 12.0\VC\INCLUDE\INITIALIZER_LIST
C:\PROGRAM FILES (X86)\MICROSOFT VISUAL STUDIO 12.0\VC\INCLUDE\NEW
C:\PROGRAM FILES (X86)\MICROSOFT VISUAL STUDIO 12.0\VC\INCLUDE\EXCEPTION
C:\PROGRAM FILES (X86)\MICROSOFT VISUAL STUDIO 12.0\VC\INCLUDE\EH.H
C:\PROGRAM FILES (X86)\MICROSOFT VISUAL STUDIO 12.0\VC\INCLUDE\MALLOC.H
C:\PROGRAM FILES (X86)\MICROSOFT VISUAL STUDIO 12.0\VC\INCLUDE\STRING.H
C:\PROGRAM FILES (X86)\MICROSOFT VISUAL STUDIO 12.0\VC\INCLUDE\XUTILITY
C:\PROGRAM FILES (X86)\MICROSOFT VISUAL STUDIO 12.0\VC\INCLUDE\UTILITY
C:\PROGRAM FILES (X86)\MICROSOFT VISUAL STUDIO 12.0\VC\INCLUDE\IOSFWD
C:\PROGRAM FILES (X86)\MICROSOFT VISUAL STUDIO 12.0\VC\INCLUDE\CSTDIO
C:\PROGRAM FILES (X86)\MICROSOFT VISUAL STUDIO 12.0\VC\INCLUDE\STDIO.H
C:\PROGRAM FILES (X86)\MICROSOFT VISUAL STUDIO 12.0\VC\INCLUDE\CSTRING
C:\PROGRAM FILES (X86)\MICROSOFT VISUAL STUDIO 12.0\VC\INCLUDE\CRTDBG.H
C:\PROGRAM FILES (X86)\MICROSOFT VISUAL STUDIO 12.0\VC\INCLUDE\TYPE_TRAITS
C:\PROGRAM FILES (X86)\MICROSOFT VISUAL STUDIO 12.0\VC\INCLUDE\XREFWRAP
C:\PROGRAM FILES (X86)\MICROSOFT VISUAL STUDIO 12.0\VC\INCLUDE\XATOMIC0.H
C:\PROGRAM FILES (X86)\MICROSOFT VISUAL STUDIO 12.0\VC\INCLUDE\INTRIN.H
C:\PROGRAM FILES (X86)\MICROSOFT VISUAL STUDIO 12.0\VC\INCLUDE\SETJMP.H
C:\PROGRAM FILES (X86)\MICROSOFT VISUAL STUDIO 12.0\VC\INCLUDE\IMMINTRIN.H
C:\PROGRAM FILES (X86)\MICROSOFT VISUAL STUDIO 12.0\VC\INCLUDE\WMMINTRIN.H
C:\PROGRAM FILES (X86)\MICROSOFT VISUAL STUDIO 12.0\VC\INCLUDE\NMMINTRIN.H
C:\PROGRAM FILES (X86)\MICROSOFT VISUAL STUDIO 12.0\VC\INCLUDE\SMMINTRIN.H
C:\PROGRAM FILES (X86)\MICROSOFT VISUAL STUDIO 12.0\VC\INCLUDE\TMMINTRIN.H
C:\PROGRAM FILES (X86)\MICROSOFT VISUAL STUDIO 12.0\VC\INCLUDE\PMMINTRIN.H
C:\PROGRAM FILES (X86)\MICROSOFT VISUAL STUDIO 12.0\VC\INCLUDE\EMMINTRIN.H
C:\PROGRAM FILES (X86)\MICROSOFT VISUAL STUDIO 12.0\VC\INCLUDE\XMMINTRIN.H
C:\PROGRAM FILES (X86)\MICROSOFT VISUAL STUDIO 12.0\VC\INCLUDE\MMINTRIN.H
C:\PROGRAM FILES (X86)\MICROSOFT VISUAL STUDIO 12.0\VC\INCLUDE\AMMINTRIN.H
C:\PASCAL\OPENCV\INCLUDE\OPENCV2\CORE\CORE.HPP
C:\PASCAL\OPENCV\INCLUDE\OPENCV2\CORE.HPP
C:\PASCAL\OPENCV\INCLUDE\OPENCV2\CORE\CVDEF.H
C:\PASCAL\OPENCV\INCLUDE\OPENCV2\HAL\DEFS.H
C:\PASCAL\OPENCV\INCLUDE\OPENCV2\CORE\VERSION.HPP
C:\PASCAL\OPENCV\INCLUDE\OPENCV2\CORE\BASE.HPP
C:\PASCAL\OPENCV\INCLUDE\OPENCV2\CORE\CVSTD.HPP
C:\PROGRAM FILES (X86)\MICROSOFT VISUAL STUDIO 12.0\VC\INCLUDE\CCTYPE
C:\PROGRAM FILES (X86)\MICROSOFT VISUAL STUDIO 12.0\VC\INCLUDE\CTYPE.H
C:\PROGRAM FILES (X86)\MICROSOFT VISUAL STUDIO 12.0\VC\INCLUDE\STRING
C:\PROGRAM FILES (X86)\MICROSOFT VISUAL STUDIO 12.0\VC\INCLUDE\ITERATOR
C:\PROGRAM FILES (X86)\MICROSOFT VISUAL STUDIO 12.0\VC\INCLUDE\ISTREAM
C:\PROGRAM FILES (X86)\MICROSOFT VISUAL STUDIO 12.0\VC\INCLUDE\OSTREAM
C:\PROGRAM FILES (X86)\MICROSOFT VISUAL STUDIO 12.0\VC\INCLUDE\IOS
C:\PROGRAM FILES (X86)\MICROSOFT VISUAL STUDIO 12.0\VC\INCLUDE\XLOCNUM
C:\PROGRAM FILES (X86)\MICROSOFT VISUAL STUDIO 12.0\VC\INCLUDE\STREAMBUF
C:\PROGRAM FILES (X86)\MICROSOFT VISUAL STUDIO 12.0\VC\INCLUDE\XIOSBASE
C:\PROGRAM FILES (X86)\MICROSOFT VISUAL STUDIO 12.0\VC\INCLUDE\XLOCALE
C:\PROGRAM FILES (X86)\MICROSOFT VISUAL STUDIO 12.0\VC\INCLUDE\STDEXCEPT
C:\PROGRAM FILES (X86)\MICROSOFT VISUAL STUDIO 12.0\VC\INCLUDE\XSTRING
C:\PROGRAM FILES (X86)\MICROSOFT VISUAL STUDIO 12.0\VC\INCLUDE\TYPEINFO
C:\PROGRAM FILES (X86)\MICROSOFT VISUAL STUDIO 12.0\VC\INCLUDE\XLOCINFO
C:\PROGRAM FILES (X86)\MICROSOFT VISUAL STUDIO 12.0\VC\INCLUDE\XLOCINFO.H
C:\PROGRAM FILES (X86)\MICROSOFT VISUAL STUDIO 12.0\VC\INCLUDE\LOCALE.H
C:\PROGRAM FILES (X86)\MICROSOFT VISUAL STUDIO 12.0\VC\INCLUDE\XDEBUG
C:\PROGRAM FILES (X86)\MICROSOFT VISUAL STUDIO 12.0\VC\INCLUDE\XFACET
C:\PROGRAM FILES (X86)\MICROSOFT VISUAL STUDIO 12.0\VC\INCLUDE\SYSTEM_ERROR
C:\PROGRAM FILES (X86)\MICROSOFT VISUAL STUDIO 12.0\VC\INCLUDE\CERRNO
C:\PROGRAM FILES (X86)\MICROSOFT VISUAL STUDIO 12.0\VC\INCLUDE\ERRNO.H
C:\PROGRAM FILES (X86)\MICROSOFT VISUAL STUDIO 12.0\VC\INCLUDE\SHARE.H
C:\PASCAL\OPENCV\INCLUDE\OPENCV2\CORE\PTR.INL.HPP
C:\PASCAL\OPENCV\INCLUDE\OPENCV2\HAL.HPP
C:\PASCAL\OPENCV\INCLUDE\OPENCV2\CORE\SSE_UTILS.HPP
C:\PASCAL\OPENCV\INCLUDE\OPENCV2\CORE\TRAITS.HPP
C:\PASCAL\OPENCV\INCLUDE\OPENCV2\CORE\MATX.HPP
C:\PASCAL\OPENCV\INCLUDE\OPENCV2\CORE\TYPES.HPP
C:\PROGRAM FILES (X86)\MICROSOFT VISUAL STUDIO 12.0\VC\INCLUDE\VECTOR
C:\PASCAL\OPENCV\INCLUDE\OPENCV2\CORE\MAT.HPP
C:\PASCAL\OPENCV\INCLUDE\OPENCV2\CORE\BUFFERPOOL.HPP
C:\PASCAL\OPENCV\INCLUDE\OPENCV2\CORE\MAT.INL.HPP
C:\PASCAL\OPENCV\INCLUDE\OPENCV2\CORE\PERSISTENCE.HPP
C:\PASCAL\OPENCV\INCLUDE\OPENCV2\CORE\OPERATIONS.HPP
C:\PASCAL\OPENCV\INCLUDE\OPENCV2\CORE\CVSTD.INL.HPP
C:\PROGRAM FILES (X86)\MICROSOFT VISUAL STUDIO 12.0\VC\INCLUDE\COMPLEX
C:\PROGRAM FILES (X86)\MICROSOFT VISUAL STUDIO 12.0\VC\INCLUDE\CCOMPLEX
C:\PROGRAM FILES (X86)\MICROSOFT VISUAL STUDIO 12.0\VC\INCLUDE\SSTREAM
C:\PROGRAM FILES (X86)\MICROSOFT VISUAL STUDIO 12.0\VC\INCLUDE\XCOMPLEX
C:\PASCAL\OPENCV\INCLUDE\OPENCV2\CORE\UTILITY.HPP
C:\PASCAL\OPENCV\INCLUDE\OPENCV2\CORE\CORE_C.H
C:\PASCAL\OPENCV\INCLUDE\OPENCV2\CORE\TYPES_C.H
C:\PROGRAM FILES (X86)\MICROSOFT VISUAL STUDIO 12.0\VC\INCLUDE\ASSERT.H
C:\PASCAL\OPENCV\INCLUDE\OPENCV2\CORE\OPTIM.HPP
C:\PASCAL\OPENCV\INCLUDE\OPENCV2\HIGHGUI\HIGHGUI.HPP
C:\PASCAL\OPENCV\INCLUDE\OPENCV2\HIGHGUI.HPP
C:\PASCAL\OPENCV\INCLUDE\OPENCV2\IMGCODECS.HPP
C:\PASCAL\OPENCV\INCLUDE\OPENCV2\VIDEOIO.HPP
C:\PASCAL\OPENCV\INCLUDE\OPENCV2\HIGHGUI\HIGHGUI_C.H
C:\PASCAL\OPENCV\INCLUDE\OPENCV2\IMGPROC\IMGPROC_C.H
C:\PASCAL\OPENCV\INCLUDE\OPENCV2\IMGPROC\TYPES_C.H
C:\PASCAL\OPENCV\INCLUDE\OPENCV2\IMGCODECS\IMGCODECS_C.H
C:\PASCAL\OPENCV\INCLUDE\OPENCV2\VIDEOIO\VIDEOIO_C.H
C:\PASCAL\OPENCV\INCLUDE\OPENCV2\VIDEO\VIDEO.HPP
C:\PASCAL\OPENCV\INCLUDE\OPENCV2\VIDEO.HPP
C:\PASCAL\OPENCV\INCLUDE\OPENCV2\VIDEO\TRACKING.HPP
C:\PASCAL\OPENCV\INCLUDE\OPENCV2\IMGPROC.HPP
C:\PASCAL\OPENCV\INCLUDE\OPENCV2\VIDEO\BACKGROUND_SEGM.HPP
C:\PASCAL\OPENCV\INCLUDE\OPENCV2\VIDEO\TRACKING_C.H
C:\PASCAL\OPENCV\INCLUDE\OPENCV2\OPENCV.HPP
C:\PASCAL\OPENCV\INCLUDE\OPENCV2\PHOTO.HPP
C:\PASCAL\OPENCV\INCLUDE\OPENCV2\PHOTO\PHOTO_C.H
^C:\PROJECTS\PASCAL3\BOOTSTRAPCODE\SRC\PARAMETERS\BOOTSTRAPSYSPARAMS.CPP
C:\PROJECTS\PASCAL3\UTILITIES\UTILITIES\STDAFX.H
C:\PROJECTS\PASCAL3\UTILITIES\UTILITIES\TARGETVER.H
C:\PROGRAM FILES (X86)\WINDOWS KITS\8.1\INCLUDE\SHARED\SDKDDKVER.H
C:\PROJECTS\PASCAL3\BOOTSTRAPCODE\SRC\PARAMETERS\BOOTSTRAPSYSPARAMS.H
C:\PROGRAM FILES (X86)\MICROSOFT VISUAL STUDIO 12.0\VC\INCLUDE\IO.H
C:\PROGRAM FILES (X86)\MICROSOFT VISUAL STUDIO 12.0\VC\INCLUDE\CRTDEFS.H
C:\PROGRAM FILES (X86)\MICROSOFT VISUAL STUDIO 12.0\VC\INCLUDE\SAL.H
C:\PROGRAM FILES (X86)\MICROSOFT VISUAL STUDIO 12.0\VC\INCLUDE\CONCURRENCYSAL.H
C:\PROGRAM FILES (X86)\MICROSOFT VISUAL STUDIO 12.0\VC\INCLUDE\VADEFS.H
C:\PROGRAM FILES (X86)\MICROSOFT VISUAL STUDIO 12.0\VC\INCLUDE\STDLIB.H
C:\PROGRAM FILES (X86)\MICROSOFT VISUAL STUDIO 12.0\VC\INCLUDE\LIMITS.H
C:\PROGRAM FILES (X86)\MICROSOFT VISUAL STUDIO 12.0\VC\INCLUDE\ALGORITHM
C:\PROGRAM FILES (X86)\MICROSOFT VISUAL STUDIO 12.0\VC\INCLUDE\XMEMORY
C:\PROGRAM FILES (X86)\MICROSOFT VISUAL STUDIO 12.0\VC\INCLUDE\XMEMORY0
C:\PROGRAM FILES (X86)\MICROSOFT VISUAL STUDIO 12.0\VC\INCLUDE\CSTDLIB
C:\PROGRAM FILES (X86)\MICROSOFT VISUAL STUDIO 12.0\VC\INCLUDE\YVALS.H
C:\PROGRAM FILES (X86)\MICROSOFT VISUAL STUDIO 12.0\VC\INCLUDE\XKEYCHECK.H
C:\PROGRAM FILES (X86)\MICROSOFT VISUAL STUDIO 12.0\VC\INCLUDE\USE_ANSI.H
C:\PROGRAM FILES (X86)\MICROSOFT VISUAL STUDIO 12.0\VC\INCLUDE\LIMITS
C:\PROGRAM FILES (X86)\MICROSOFT VISUAL STUDIO 12.0\VC\INCLUDE\YMATH.H
C:\PROGRAM FILES (X86)\MICROSOFT VISUAL STUDIO 12.0\VC\INCLUDE\CFLOAT
C:\PROGRAM FILES (X86)\MICROSOFT VISUAL STUDIO 12.0\VC\INCLUDE\FLOAT.H
C:\PROGRAM FILES (X86)\MICROSOFT VISUAL STUDIO 12.0\VC\INCLUDE\CRTWRN.H
C:\PROGRAM FILES (X86)\MICROSOFT VISUAL STUDIO 12.0\VC\INCLUDE\CLIMITS
C:\PROGRAM FILES (X86)\MICROSOFT VISUAL STUDIO 12.0\VC\INCLUDE\CMATH
C:\PROGRAM FILES (X86)\MICROSOFT VISUAL STUDIO 12.0\VC\INCLUDE\MATH.H
C:\PROGRAM FILES (X86)\MICROSOFT VISUAL STUDIO 12.0\VC\INCLUDE\XTGMATH.H
C:\PROGRAM FILES (X86)\MICROSOFT VISUAL STUDIO 12.0\VC\INCLUDE\XTR1COMMON
C:\PROGRAM FILES (X86)\MICROSOFT VISUAL STUDIO 12.0\VC\INCLUDE\CWCHAR
C:\PROGRAM FILES (X86)\MICROSOFT VISUAL STUDIO 12.0\VC\INCLUDE\WCHAR.H
C:\PROGRAM FILES (X86)\MICROSOFT VISUAL STUDIO 12.0\VC\INCLUDE\SWPRINTF.INL
C:\PROGRAM FILES (X86)\MICROSOFT VISUAL STUDIO 12.0\VC\INCLUDE\WTIME.INL
C:\PROGRAM FILES (X86)\MICROSOFT VISUAL STUDIO 12.0\VC\INCLUDE\XSTDDEF
C:\PROGRAM FILES (X86)\MICROSOFT VISUAL STUDIO 12.0\VC\INCLUDE\CSTDDEF
C:\PROGRAM FILES (X86)\MICROSOFT VISUAL STUDIO 12.0\VC\INCLUDE\STDDEF.H
C:\PROGRAM FILES (X86)\MICROSOFT VISUAL STUDIO 12.0\VC\INCLUDE\INITIALIZER_LIST
C:\PROGRAM FILES (X86)\MICROSOFT VISUAL STUDIO 12.0\VC\INCLUDE\NEW
C:\PROGRAM FILES (X86)\MICROSOFT VISUAL STUDIO 12.0\VC\INCLUDE\EXCEPTION
C:\PROGRAM FILES (X86)\MICROSOFT VISUAL STUDIO 12.0\VC\INCLUDE\EH.H
C:\PROGRAM FILES (X86)\MICROSOFT VISUAL STUDIO 12.0\VC\INCLUDE\MALLOC.H
C:\PROGRAM FILES (X86)\MICROSOFT VISUAL STUDIO 12.0\VC\INCLUDE\STRING.H
C:\PROGRAM FILES (X86)\MICROSOFT VISUAL STUDIO 12.0\VC\INCLUDE\XUTILITY
C:\PROGRAM FILES (X86)\MICROSOFT VISUAL STUDIO 12.0\VC\INCLUDE\UTILITY
C:\PROGRAM FILES (X86)\MICROSOFT VISUAL STUDIO 12.0\VC\INCLUDE\IOSFWD
C:\PROGRAM FILES (X86)\MICROSOFT VISUAL STUDIO 12.0\VC\INCLUDE\CSTDIO
C:\PROGRAM FILES (X86)\MICROSOFT VISUAL STUDIO 12.0\VC\INCLUDE\STDIO.H
C:\PROGRAM FILES (X86)\MICROSOFT VISUAL STUDIO 12.0\VC\INCLUDE\CSTRING
C:\PROGRAM FILES (X86)\MICROSOFT VISUAL STUDIO 12.0\VC\INCLUDE\CRTDBG.H
C:\PROGRAM FILES (X86)\MICROSOFT VISUAL STUDIO 12.0\VC\INCLUDE\TYPE_TRAITS
C:\PROGRAM FILES (X86)\MICROSOFT VISUAL STUDIO 12.0\VC\INCLUDE\XREFWRAP
C:\PROGRAM FILES (X86)\MICROSOFT VISUAL STUDIO 12.0\VC\INCLUDE\XATOMIC0.H
C:\PROGRAM FILES (X86)\MICROSOFT VISUAL STUDIO 12.0\VC\INCLUDE\INTRIN.H
C:\PROGRAM FILES (X86)\MICROSOFT VISUAL STUDIO 12.0\VC\INCLUDE\SETJMP.H
C:\PROGRAM FILES (X86)\MICROSOFT VISUAL STUDIO 12.0\VC\INCLUDE\IMMINTRIN.H
C:\PROGRAM FILES (X86)\MICROSOFT VISUAL STUDIO 12.0\VC\INCLUDE\WMMINTRIN.H
C:\PROGRAM FILES (X86)\MICROSOFT VISUAL STUDIO 12.0\VC\INCLUDE\NMMINTRIN.H
C:\PROGRAM FILES (X86)\MICROSOFT VISUAL STUDIO 12.0\VC\INCLUDE\SMMINTRIN.H
C:\PROGRAM FILES (X86)\MICROSOFT VISUAL STUDIO 12.0\VC\INCLUDE\TMMINTRIN.H
C:\PROGRAM FILES (X86)\MICROSOFT VISUAL STUDIO 12.0\VC\INCLUDE\PMMINTRIN.H
C:\PROGRAM FILES (X86)\MICROSOFT VISUAL STUDIO 12.0\VC\INCLUDE\EMMINTRIN.H
C:\PROGRAM FILES (X86)\MICROSOFT VISUAL STUDIO 12.0\VC\INCLUDE\XMMINTRIN.H
C:\PROGRAM FILES (X86)\MICROSOFT VISUAL STUDIO 12.0\VC\INCLUDE\MMINTRIN.H
C:\PROGRAM FILES (X86)\MICROSOFT VISUAL STUDIO 12.0\VC\INCLUDE\AMMINTRIN.H
C:\PASCAL\OPENCV\INCLUDE\OPENCV2\CORE\CORE.HPP
C:\PASCAL\OPENCV\INCLUDE\OPENCV2\CORE.HPP
C:\PASCAL\OPENCV\INCLUDE\OPENCV2\CORE\CVDEF.H
C:\PASCAL\OPENCV\INCLUDE\OPENCV2\HAL\DEFS.H
C:\PASCAL\OPENCV\INCLUDE\OPENCV2\CORE\VERSION.HPP
C:\PASCAL\OPENCV\INCLUDE\OPENCV2\CORE\BASE.HPP
C:\PASCAL\OPENCV\INCLUDE\OPENCV2\CORE\CVSTD.HPP
C:\PROGRAM FILES (X86)\MICROSOFT VISUAL STUDIO 12.0\VC\INCLUDE\CCTYPE
C:\PROGRAM FILES (X86)\MICROSOFT VISUAL STUDIO 12.0\VC\INCLUDE\CTYPE.H
C:\PROGRAM FILES (X86)\MICROSOFT VISUAL STUDIO 12.0\VC\INCLUDE\STRING
C:\PROGRAM FILES (X86)\MICROSOFT VISUAL STUDIO 12.0\VC\INCLUDE\ITERATOR
C:\PROGRAM FILES (X86)\MICROSOFT VISUAL STUDIO 12.0\VC\INCLUDE\ISTREAM
C:\PROGRAM FILES (X86)\MICROSOFT VISUAL STUDIO 12.0\VC\INCLUDE\OSTREAM
C:\PROGRAM FILES (X86)\MICROSOFT VISUAL STUDIO 12.0\VC\INCLUDE\IOS
C:\PROGRAM FILES (X86)\MICROSOFT VISUAL STUDIO 12.0\VC\INCLUDE\XLOCNUM
C:\PROGRAM FILES (X86)\MICROSOFT VISUAL STUDIO 12.0\VC\INCLUDE\STREAMBUF
C:\PROGRAM FILES (X86)\MICROSOFT VISUAL STUDIO 12.0\VC\INCLUDE\XIOSBASE
C:\PROGRAM FILES (X86)\MICROSOFT VISUAL STUDIO 12.0\VC\INCLUDE\XLOCALE
C:\PROGRAM FILES (X86)\MICROSOFT VISUAL STUDIO 12.0\VC\INCLUDE\STDEXCEPT
C:\PROGRAM FILES (X86)\MICROSOFT VISUAL STUDIO 12.0\VC\INCLUDE\XSTRING
C:\PROGRAM FILES (X86)\MICROSOFT VISUAL STUDIO 12.0\VC\INCLUDE\TYPEINFO
C:\PROGRAM FILES (X86)\MICROSOFT VISUAL STUDIO 12.0\VC\INCLUDE\XLOCINFO
C:\PROGRAM FILES (X86)\MICROSOFT VISUAL STUDIO 12.0\VC\INCLUDE\XLOCINFO.H
C:\PROGRAM FILES (X86)\MICROSOFT VISUAL STUDIO 12.0\VC\INCLUDE\LOCALE.H
C:\PROGRAM FILES (X86)\MICROSOFT VISUAL STUDIO 12.0\VC\INCLUDE\XDEBUG
C:\PROGRAM FILES (X86)\MICROSOFT VISUAL STUDIO 12.0\VC\INCLUDE\XFACET
C:\PROGRAM FILES (X86)\MICROSOFT VISUAL STUDIO 12.0\VC\INCLUDE\SYSTEM_ERROR
C:\PROGRAM FILES (X86)\MICROSOFT VISUAL STUDIO 12.0\VC\INCLUDE\CERRNO
C:\PROGRAM FILES (X86)\MICROSOFT VISUAL STUDIO 12.0\VC\INCLUDE\ERRNO.H
C:\PROGRAM FILES (X86)\MICROSOFT VISUAL STUDIO 12.0\VC\INCLUDE\SHARE.H
C:\PASCAL\OPENCV\INCLUDE\OPENCV2\CORE\PTR.INL.HPP
C:\PASCAL\OPENCV\INCLUDE\OPENCV2\HAL.HPP
C:\PASCAL\OPENCV\INCLUDE\OPENCV2\CORE\SSE_UTILS.HPP
C:\PASCAL\OPENCV\INCLUDE\OPENCV2\CORE\TRAITS.HPP
C:\PASCAL\OPENCV\INCLUDE\OPENCV2\CORE\MATX.HPP
C:\PASCAL\OPENCV\INCLUDE\OPENCV2\CORE\TYPES.HPP
C:\PROGRAM FILES (X86)\MICROSOFT VISUAL STUDIO 12.0\VC\INCLUDE\VECTOR
C:\PASCAL\OPENCV\INCLUDE\OPENCV2\CORE\MAT.HPP
C:\PASCAL\OPENCV\INCLUDE\OPENCV2\CORE\BUFFERPOOL.HPP
C:\PASCAL\OPENCV\INCLUDE\OPENCV2\CORE\MAT.INL.HPP
C:\PASCAL\OPENCV\INCLUDE\OPENCV2\CORE\PERSISTENCE.HPP
C:\PASCAL\OPENCV\INCLUDE\OPENCV2\CORE\OPERATIONS.HPP
C:\PASCAL\OPENCV\INCLUDE\OPENCV2\CORE\CVSTD.INL.HPP
C:\PROGRAM FILES (X86)\MICROSOFT VISUAL STUDIO 12.0\VC\INCLUDE\COMPLEX
C:\PROGRAM FILES (X86)\MICROSOFT VISUAL STUDIO 12.0\VC\INCLUDE\CCOMPLEX
C:\PROGRAM FILES (X86)\MICROSOFT VISUAL STUDIO 12.0\VC\INCLUDE\SSTREAM
C:\PROGRAM FILES (X86)\MICROSOFT VISUAL STUDIO 12.0\VC\INCLUDE\XCOMPLEX
C:\PASCAL\OPENCV\INCLUDE\OPENCV2\CORE\UTILITY.HPP
C:\PASCAL\OPENCV\INCLUDE\OPENCV2\CORE\CORE_C.H
C:\PASCAL\OPENCV\INCLUDE\OPENCV2\CORE\TYPES_C.H
C:\PROGRAM FILES (X86)\MICROSOFT VISUAL STUDIO 12.0\VC\INCLUDE\ASSERT.H
C:\PASCAL\OPENCV\INCLUDE\OPENCV2\CORE\OPTIM.HPP
C:\PASCAL\OPENCV\INCLUDE\OPENCV2\HIGHGUI\HIGHGUI.HPP
C:\PASCAL\OPENCV\INCLUDE\OPENCV2\HIGHGUI.HPP
C:\PASCAL\OPENCV\INCLUDE\OPENCV2\IMGCODECS.HPP
C:\PASCAL\OPENCV\INCLUDE\OPENCV2\VIDEOIO.HPP
C:\PASCAL\OPENCV\INCLUDE\OPENCV2\HIGHGUI\HIGHGUI_C.H
C:\PASCAL\OPENCV\INCLUDE\OPENCV2\IMGPROC\IMGPROC_C.H
C:\PASCAL\OPENCV\INCLUDE\OPENCV2\IMGPROC\TYPES_C.H
C:\PASCAL\OPENCV\INCLUDE\OPENCV2\IMGCODECS\IMGCODECS_C.H
C:\PASCAL\OPENCV\INCLUDE\OPENCV2\VIDEOIO\VIDEOIO_C.H
C:\PASCAL\OPENCV\INCLUDE\OPENCV2\VIDEO\VIDEO.HPP
C:\PASCAL\OPENCV\INCLUDE\OPENCV2\VIDEO.HPP
C:\PASCAL\OPENCV\INCLUDE\OPENCV2\VIDEO\TRACKING.HPP
C:\PASCAL\OPENCV\INCLUDE\OPENCV2\IMGPROC.HPP
C:\PASCAL\OPENCV\INCLUDE\OPENCV2\VIDEO\BACKGROUND_SEGM.HPP
C:\PASCAL\OPENCV\INCLUDE\OPENCV2\VIDEO\TRACKING_C.H
C:\PASCAL\OPENCV\INCLUDE\OPENCV2\OPENCV.HPP
C:\PASCAL\OPENCV\INCLUDE\OPENCV2\PHOTO.HPP
C:\PASCAL\OPENCV\INCLUDE\OPENCV2\PHOTO\PHOTO_C.H
C:\PROJECTS\PASCAL3\UTILITIES\UTILITIES\CAMPARAMS.H
C:\PROJECTS\PASCAL3\BOOTSTRAPCODE\SRC\PARAMETERS\DEBUGFLAGS.H
^C:\PROJECTS\PASCAL3\BOOTSTRAPCODE\SRC\TRACKING\TRACKING2D.CPP
C:\PROJECTS\PASCAL3\UTILITIES\UTILITIES\STDAFX.H
C:\PROJECTS\PASCAL3\UTILITIES\UTILITIES\TARGETVER.H
C:\PROGRAM FILES (X86)\WINDOWS KITS\8.1\INCLUDE\SHARED\SDKDDKVER.H
C:\PROGRAM FILES (X86)\MICROSOFT VISUAL STUDIO 12.0\VC\INCLUDE\IO.H
C:\PROGRAM FILES (X86)\MICROSOFT VISUAL STUDIO 12.0\VC\INCLUDE\CRTDEFS.H
C:\PROGRAM FILES (X86)\MICROSOFT VISUAL STUDIO 12.0\VC\INCLUDE\SAL.H
C:\PROGRAM FILES (X86)\MICROSOFT VISUAL STUDIO 12.0\VC\INCLUDE\CONCURRENCYSAL.H
C:\PROGRAM FILES (X86)\MICROSOFT VISUAL STUDIO 12.0\VC\INCLUDE\VADEFS.H
C:\PROGRAM FILES (X86)\MICROSOFT VISUAL STUDIO 12.0\VC\INCLUDE\ALGORITHM
C:\PROGRAM FILES (X86)\MICROSOFT VISUAL STUDIO 12.0\VC\INCLUDE\XMEMORY
C:\PROGRAM FILES (X86)\MICROSOFT VISUAL STUDIO 12.0\VC\INCLUDE\XMEMORY0
C:\PROGRAM FILES (X86)\MICROSOFT VISUAL STUDIO 12.0\VC\INCLUDE\CSTDLIB
C:\PROGRAM FILES (X86)\MICROSOFT VISUAL STUDIO 12.0\VC\INCLUDE\YVALS.H
C:\PROGRAM FILES (X86)\MICROSOFT VISUAL STUDIO 12.0\VC\INCLUDE\XKEYCHECK.H
C:\PROGRAM FILES (X86)\MICROSOFT VISUAL STUDIO 12.0\VC\INCLUDE\USE_ANSI.H
C:\PROGRAM FILES (X86)\MICROSOFT VISUAL STUDIO 12.0\VC\INCLUDE\STDLIB.H
C:\PROGRAM FILES (X86)\MICROSOFT VISUAL STUDIO 12.0\VC\INCLUDE\LIMITS.H
C:\PROGRAM FILES (X86)\MICROSOFT VISUAL STUDIO 12.0\VC\INCLUDE\LIMITS
C:\PROGRAM FILES (X86)\MICROSOFT VISUAL STUDIO 12.0\VC\INCLUDE\YMATH.H
C:\PROGRAM FILES (X86)\MICROSOFT VISUAL STUDIO 12.0\VC\INCLUDE\CFLOAT
C:\PROGRAM FILES (X86)\MICROSOFT VISUAL STUDIO 12.0\VC\INCLUDE\FLOAT.H
C:\PROGRAM FILES (X86)\MICROSOFT VISUAL STUDIO 12.0\VC\INCLUDE\CRTWRN.H
C:\PROGRAM FILES (X86)\MICROSOFT VISUAL STUDIO 12.0\VC\INCLUDE\CLIMITS
C:\PROGRAM FILES (X86)\MICROSOFT VISUAL STUDIO 12.0\VC\INCLUDE\CMATH
C:\PROGRAM FILES (X86)\MICROSOFT VISUAL STUDIO 12.0\VC\INCLUDE\MATH.H
C:\PROGRAM FILES (X86)\MICROSOFT VISUAL STUDIO 12.0\VC\INCLUDE\XTGMATH.H
C:\PROGRAM FILES (X86)\MICROSOFT VISUAL STUDIO 12.0\VC\INCLUDE\XTR1COMMON
C:\PROGRAM FILES (X86)\MICROSOFT VISUAL STUDIO 12.0\VC\INCLUDE\CWCHAR
C:\PROGRAM FILES (X86)\MICROSOFT VISUAL STUDIO 12.0\VC\INCLUDE\WCHAR.H
C:\PROGRAM FILES (X86)\MICROSOFT VISUAL STUDIO 12.0\VC\INCLUDE\SWPRINTF.INL
C:\PROGRAM FILES (X86)\MICROSOFT VISUAL STUDIO 12.0\VC\INCLUDE\WTIME.INL
C:\PROGRAM FILES (X86)\MICROSOFT VISUAL STUDIO 12.0\VC\INCLUDE\XSTDDEF
C:\PROGRAM FILES (X86)\MICROSOFT VISUAL STUDIO 12.0\VC\INCLUDE\CSTDDEF
C:\PROGRAM FILES (X86)\MICROSOFT VISUAL STUDIO 12.0\VC\INCLUDE\STDDEF.H
C:\PROGRAM FILES (X86)\MICROSOFT VISUAL STUDIO 12.0\VC\INCLUDE\INITIALIZER_LIST
C:\PROGRAM FILES (X86)\MICROSOFT VISUAL STUDIO 12.0\VC\INCLUDE\NEW
C:\PROGRAM FILES (X86)\MICROSOFT VISUAL STUDIO 12.0\VC\INCLUDE\EXCEPTION
C:\PROGRAM FILES (X86)\MICROSOFT VISUAL STUDIO 12.0\VC\INCLUDE\EH.H
C:\PROGRAM FILES (X86)\MICROSOFT VISUAL STUDIO 12.0\VC\INCLUDE\MALLOC.H
C:\PROGRAM FILES (X86)\MICROSOFT VISUAL STUDIO 12.0\VC\INCLUDE\STRING.H
C:\PROGRAM FILES (X86)\MICROSOFT VISUAL STUDIO 12.0\VC\INCLUDE\XUTILITY
C:\PROGRAM FILES (X86)\MICROSOFT VISUAL STUDIO 12.0\VC\INCLUDE\UTILITY
C:\PROGRAM FILES (X86)\MICROSOFT VISUAL STUDIO 12.0\VC\INCLUDE\IOSFWD
C:\PROGRAM FILES (X86)\MICROSOFT VISUAL STUDIO 12.0\VC\INCLUDE\CSTDIO
C:\PROGRAM FILES (X86)\MICROSOFT VISUAL STUDIO 12.0\VC\INCLUDE\STDIO.H
C:\PROGRAM FILES (X86)\MICROSOFT VISUAL STUDIO 12.0\VC\INCLUDE\CSTRING
C:\PROGRAM FILES (X86)\MICROSOFT VISUAL STUDIO 12.0\VC\INCLUDE\CRTDBG.H
C:\PROGRAM FILES (X86)\MICROSOFT VISUAL STUDIO 12.0\VC\INCLUDE\TYPE_TRAITS
C:\PROGRAM FILES (X86)\MICROSOFT VISUAL STUDIO 12.0\VC\INCLUDE\XREFWRAP
C:\PROGRAM FILES (X86)\MICROSOFT VISUAL STUDIO 12.0\VC\INCLUDE\XATOMIC0.H
C:\PROGRAM FILES (X86)\MICROSOFT VISUAL STUDIO 12.0\VC\INCLUDE\INTRIN.H
C:\PROGRAM FILES (X86)\MICROSOFT VISUAL STUDIO 12.0\VC\INCLUDE\SETJMP.H
C:\PROGRAM FILES (X86)\MICROSOFT VISUAL STUDIO 12.0\VC\INCLUDE\IMMINTRIN.H
C:\PROGRAM FILES (X86)\MICROSOFT VISUAL STUDIO 12.0\VC\INCLUDE\WMMINTRIN.H
C:\PROGRAM FILES (X86)\MICROSOFT VISUAL STUDIO 12.0\VC\INCLUDE\NMMINTRIN.H
C:\PROGRAM FILES (X86)\MICROSOFT VISUAL STUDIO 12.0\VC\INCLUDE\SMMINTRIN.H
C:\PROGRAM FILES (X86)\MICROSOFT VISUAL STUDIO 12.0\VC\INCLUDE\TMMINTRIN.H
C:\PROGRAM FILES (X86)\MICROSOFT VISUAL STUDIO 12.0\VC\INCLUDE\PMMINTRIN.H
C:\PROGRAM FILES (X86)\MICROSOFT VISUAL STUDIO 12.0\VC\INCLUDE\EMMINTRIN.H
C:\PROGRAM FILES (X86)\MICROSOFT VISUAL STUDIO 12.0\VC\INCLUDE\XMMINTRIN.H
C:\PROGRAM FILES (X86)\MICROSOFT VISUAL STUDIO 12.0\VC\INCLUDE\MMINTRIN.H
C:\PROGRAM FILES (X86)\MICROSOFT VISUAL STUDIO 12.0\VC\INCLUDE\AMMINTRIN.H
C:\PASCAL\OPENCV\INCLUDE\OPENCV2\CORE\CORE.HPP
C:\PASCAL\OPENCV\INCLUDE\OPENCV2\CORE.HPP
C:\PASCAL\OPENCV\INCLUDE\OPENCV2\CORE\CVDEF.H
C:\PASCAL\OPENCV\INCLUDE\OPENCV2\HAL\DEFS.H
C:\PASCAL\OPENCV\INCLUDE\OPENCV2\CORE\VERSION.HPP
C:\PASCAL\OPENCV\INCLUDE\OPENCV2\CORE\BASE.HPP
C:\PASCAL\OPENCV\INCLUDE\OPENCV2\CORE\CVSTD.HPP
C:\PROGRAM FILES (X86)\MICROSOFT VISUAL STUDIO 12.0\VC\INCLUDE\CCTYPE
C:\PROGRAM FILES (X86)\MICROSOFT VISUAL STUDIO 12.0\VC\INCLUDE\CTYPE.H
C:\PROGRAM FILES (X86)\MICROSOFT VISUAL STUDIO 12.0\VC\INCLUDE\STRING
C:\PROGRAM FILES (X86)\MICROSOFT VISUAL STUDIO 12.0\VC\INCLUDE\ITERATOR
C:\PROGRAM FILES (X86)\MICROSOFT VISUAL STUDIO 12.0\VC\INCLUDE\ISTREAM
C:\PROGRAM FILES (X86)\MICROSOFT VISUAL STUDIO 12.0\VC\INCLUDE\OSTREAM
C:\PROGRAM FILES (X86)\MICROSOFT VISUAL STUDIO 12.0\VC\INCLUDE\IOS
C:\PROGRAM FILES (X86)\MICROSOFT VISUAL STUDIO 12.0\VC\INCLUDE\XLOCNUM
C:\PROGRAM FILES (X86)\MICROSOFT VISUAL STUDIO 12.0\VC\INCLUDE\STREAMBUF
C:\PROGRAM FILES (X86)\MICROSOFT VISUAL STUDIO 12.0\VC\INCLUDE\XIOSBASE
C:\PROGRAM FILES (X86)\MICROSOFT VISUAL STUDIO 12.0\VC\INCLUDE\XLOCALE
C:\PROGRAM FILES (X86)\MICROSOFT VISUAL STUDIO 12.0\VC\INCLUDE\STDEXCEPT
C:\PROGRAM FILES (X86)\MICROSOFT VISUAL STUDIO 12.0\VC\INCLUDE\XSTRING
C:\PROGRAM FILES (X86)\MICROSOFT VISUAL STUDIO 12.0\VC\INCLUDE\TYPEINFO
C:\PROGRAM FILES (X86)\MICROSOFT VISUAL STUDIO 12.0\VC\INCLUDE\XLOCINFO
C:\PROGRAM FILES (X86)\MICROSOFT VISUAL STUDIO 12.0\VC\INCLUDE\XLOCINFO.H
C:\PROGRAM FILES (X86)\MICROSOFT VISUAL STUDIO 12.0\VC\INCLUDE\LOCALE.H
C:\PROGRAM FILES (X86)\MICROSOFT VISUAL STUDIO 12.0\VC\INCLUDE\XDEBUG
C:\PROGRAM FILES (X86)\MICROSOFT VISUAL STUDIO 12.0\VC\INCLUDE\XFACET
C:\PROGRAM FILES (X86)\MICROSOFT VISUAL STUDIO 12.0\VC\INCLUDE\SYSTEM_ERROR
C:\PROGRAM FILES (X86)\MICROSOFT VISUAL STUDIO 12.0\VC\INCLUDE\CERRNO
C:\PROGRAM FILES (X86)\MICROSOFT VISUAL STUDIO 12.0\VC\INCLUDE\ERRNO.H
C:\PROGRAM FILES (X86)\MICROSOFT VISUAL STUDIO 12.0\VC\INCLUDE\SHARE.H
C:\PASCAL\OPENCV\INCLUDE\OPENCV2\CORE\PTR.INL.HPP
C:\PASCAL\OPENCV\INCLUDE\OPENCV2\HAL.HPP
C:\PASCAL\OPENCV\INCLUDE\OPENCV2\CORE\SSE_UTILS.HPP
C:\PASCAL\OPENCV\INCLUDE\OPENCV2\CORE\TRAITS.HPP
C:\PASCAL\OPENCV\INCLUDE\OPENCV2\CORE\MATX.HPP
C:\PASCAL\OPENCV\INCLUDE\OPENCV2\CORE\TYPES.HPP
C:\PROGRAM FILES (X86)\MICROSOFT VISUAL STUDIO 12.0\VC\INCLUDE\VECTOR
C:\PASCAL\OPENCV\INCLUDE\OPENCV2\CORE\MAT.HPP
C:\PASCAL\OPENCV\INCLUDE\OPENCV2\CORE\BUFFERPOOL.HPP
C:\PASCAL\OPENCV\INCLUDE\OPENCV2\CORE\MAT.INL.HPP
C:\PASCAL\OPENCV\INCLUDE\OPENCV2\CORE\PERSISTENCE.HPP
C:\PASCAL\OPENCV\INCLUDE\OPENCV2\CORE\OPERATIONS.HPP
C:\PASCAL\OPENCV\INCLUDE\OPENCV2\CORE\CVSTD.INL.HPP
C:\PROGRAM FILES (X86)\MICROSOFT VISUAL STUDIO 12.0\VC\INCLUDE\COMPLEX
C:\PROGRAM FILES (X86)\MICROSOFT VISUAL STUDIO 12.0\VC\INCLUDE\CCOMPLEX
C:\PROGRAM FILES (X86)\MICROSOFT VISUAL STUDIO 12.0\VC\INCLUDE\SSTREAM
C:\PROGRAM FILES (X86)\MICROSOFT VISUAL STUDIO 12.0\VC\INCLUDE\XCOMPLEX
C:\PASCAL\OPENCV\INCLUDE\OPENCV2\CORE\UTILITY.HPP
C:\PASCAL\OPENCV\INCLUDE\OPENCV2\CORE\CORE_C.H
C:\PASCAL\OPENCV\INCLUDE\OPENCV2\CORE\TYPES_C.H
C:\PROGRAM FILES (X86)\MICROSOFT VISUAL STUDIO 12.0\VC\INCLUDE\ASSERT.H
C:\PASCAL\OPENCV\INCLUDE\OPENCV2\CORE\OPTIM.HPP
C:\PASCAL\OPENCV\INCLUDE\OPENCV2\HIGHGUI\HIGHGUI.HPP
C:\PASCAL\OPENCV\INCLUDE\OPENCV2\HIGHGUI.HPP
C:\PASCAL\OPENCV\INCLUDE\OPENCV2\IMGCODECS.HPP
C:\PASCAL\OPENCV\INCLUDE\OPENCV2\VIDEOIO.HPP
C:\PASCAL\OPENCV\INCLUDE\OPENCV2\HIGHGUI\HIGHGUI_C.H
C:\PASCAL\OPENCV\INCLUDE\OPENCV2\IMGPROC\IMGPROC_C.H
C:\PASCAL\OPENCV\INCLUDE\OPENCV2\IMGPROC\TYPES_C.H
C:\PASCAL\OPENCV\INCLUDE\OPENCV2\IMGCODECS\IMGCODECS_C.H
C:\PASCAL\OPENCV\INCLUDE\OPENCV2\VIDEOIO\VIDEOIO_C.H
C:\PASCAL\OPENCV\INCLUDE\OPENCV2\VIDEO\VIDEO.HPP
C:\PASCAL\OPENCV\INCLUDE\OPENCV2\VIDEO.HPP
C:\PASCAL\OPENCV\INCLUDE\OPENCV2\VIDEO\TRACKING.HPP
C:\PASCAL\OPENCV\INCLUDE\OPENCV2\IMGPROC.HPP
C:\PASCAL\OPENCV\INCLUDE\OPENCV2\VIDEO\BACKGROUND_SEGM.HPP
C:\PASCAL\OPENCV\INCLUDE\OPENCV2\VIDEO\TRACKING_C.H
C:\PASCAL\OPENCV\INCLUDE\OPENCV2\OPENCV.HPP
C:\PASCAL\OPENCV\INCLUDE\OPENCV2\PHOTO.HPP
C:\PASCAL\OPENCV\INCLUDE\OPENCV2\PHOTO\PHOTO_C.H
C:\PROJECTS\PASCAL3\BOOTSTRAPCODE\SRC\TRACKING\TRACKING2D.H
C:\PROGRAM FILES (X86)\MICROSOFT VISUAL STUDIO 12.0\VC\INCLUDE\DEQUE
C:\PROGRAM FILES (X86)\MICROSOFT VISUAL STUDIO 12.0\VC\INCLUDE\IOSTREAM
^C:\PROJECTS\PASCAL3\BOOTSTRAPCODE\SRC\UTILITIES\STDAFX.CPP
C:\PROJECTS\PASCAL3\BOOTSTRAPCODE\SRC\UTILITIES\STDAFX.H
C:\PROJECTS\PASCAL3\BOOTSTRAPCODE\SRC\UTILITIES\TARGETVER.H
C:\PROGRAM FILES (X86)\WINDOWS KITS\8.1\INCLUDE\SHARED\SDKDDKVER.H
C:\PROGRAM FILES (X86)\MICROSOFT VISUAL STUDIO 12.0\VC\INCLUDE\STDIO.H
C:\PROGRAM FILES (X86)\MICROSOFT VISUAL STUDIO 12.0\VC\INCLUDE\CRTDEFS.H
C:\PROGRAM FILES (X86)\MICROSOFT VISUAL STUDIO 12.0\VC\INCLUDE\SAL.H
C:\PROGRAM FILES (X86)\MICROSOFT VISUAL STUDIO 12.0\VC\INCLUDE\CONCURRENCYSAL.H
C:\PROGRAM FILES (X86)\MICROSOFT VISUAL STUDIO 12.0\VC\INCLUDE\VADEFS.H
C:\PROGRAM FILES (X86)\MICROSOFT VISUAL STUDIO 12.0\VC\INCLUDE\SWPRINTF.INL
C:\PROGRAM FILES (X86)\MICROSOFT VISUAL STUDIO 12.0\VC\INCLUDE\TCHAR.H
C:\PROGRAM FILES (X86)\MICROSOFT VISUAL STUDIO 12.0\VC\INCLUDE\STRING.H
